cod_muni;renda_media_mora
290010;0.1039430
290020;0.0369796
290030;0.0632048
290035;0.0478007
290040;0.0471840
290050;0.0896430
290060;0.0903711
290070;0.2255077
290080;0.1116180
290090;0.0864447
290100;0.1273372
290110;0.1337953
290115;0.0246751
290120;0.0571737
290130;0.0399001
290135;0.0893453
290140;0.0727826
290150;0.0804450
290160;0.0693297
290170;0.0675629
290180;0.0756591
290190;0.0344118
290195;0.0889314
290200;0.0947229
290205;0.0573542
290210;0.0349818
290220;0.0919526
290225;0.0847897
290230;0.0711365
290240;0.0693352
290250;0.0548254
290260;0.0605262
290265;0.0557437
290270;0.0305530
290280;0.0688650
290290;0.0647726
290300;0.0851584
290310;0.0929255
290320;0.2662293
290323;0.0607382
290327;0.0807526
290330;0.0892829
290340;0.0952689
290350;0.0761329
290360;0.0477370
290370;0.0608194
290380;0.0271272
290390;0.1132387
290395;0.0496987
290400;0.0665562
290405;0.0472632
290410;0.0637126
290420;0.0560447
290430;0.0739035
290440;0.0435502
290450;0.0681387
290460;0.1581597
290470;0.1015068
290475;0.0135674
290480;0.0877336
290485;0.0268015
290490;0.1262366
290500;0.1367406
290510;0.0498670
290515;0.0492278
290520;0.1321312
290530;0.0502793
290540;0.1238321
290550;0.0379057
290560;0.1028370
290570;0.2194988
290580;0.0637670
290590;0.0298272
290600;0.0670925
290610;0.0488505
290620;0.0571113
290630;0.1200140
290640;0.0759930
290650;0.1634434
290660;0.0837588
290670;0.0748151
290680;0.0374284
290682;0.0706240
290685;0.0838002
290687;0.1157762
290689;0.0823851
290690;0.1301232
290700;0.0417720
290710;0.0415359
290720;0.0730974
290730;0.0843339
290740;0.0656539
290750;0.1791982
290755;0.0637571
290760;0.0499615
290770;0.0577254
290780;0.1020589
290790;0.0916447
290800;0.1014435
290810;0.0830684
290820;0.0979457
290830;0.0843788
290840;0.1095651
290850;0.1527138
290860;0.0454592
290870;0.0839384
290880;0.0915035
290890;0.0792716
290900;0.0849524
290910;0.0557778
290920;0.0612631
290930;0.1001507
290940;0.0512379
290950;0.0662795
290960;0.0417765
290970;0.0597121
290980;0.2001222
290990;0.0522789
291000;0.0408203
291005;0.1752780
291010;0.0822068
291020;0.0960157
291030;0.1068354
291040;0.0450467
291050;0.0862788
291060;0.0802003
291070;0.0797972
291072;0.2334898
291075;0.0654410
291077;0.0490643
291080;0.2515639
291085;0.0569865
291090;0.1195595
291100;0.0729407
291110;0.0886229
291120;0.1492043
291125;0.0860695
291130;0.0402677
291140;0.0769474
291150;0.0575951
291160;0.0843199
291165;0.0701501
291170;0.1815840
291180;0.0710733
291185;0.0639712
291190;0.0640640
291200;0.1128379
291210;0.1112310
291220;0.0912812
291230;0.1146590
291240;0.0687961
291250;0.0696462
291260;0.0322134
291270;0.0780982
291280;0.1790995
291290;0.0910484
291300;0.0564544
291310;0.0605380
291320;0.1085975
291330;0.1028278
291340;0.0927699
291345;0.0637676
291350;0.0725440
291360;0.2490655
291370;0.0641925
291380;0.0388662
291390;0.1626194
291400;0.0754414
291410;0.0804033
291420;0.0632294
291430;0.0544930
291440;0.0435307
291450;0.0926542
291460;0.1767155
291465;0.1103031
291470;0.1402526
291480;0.2741499
291490;0.1073306
291500;0.0504998
291510;0.0635294
291520;0.0865395
291530;0.1271209
291535;0.0364502
291540;0.0899871
291550;0.1344348
291560;0.1561853
291570;0.1138896
291580;0.1052804
291590;0.0870031
291600;0.1384251
291610;0.1281491
291620;0.1064208
291630;0.1024097
291640;0.2018708
291650;0.0299880
291660;0.0672058
291670;0.0550467
291680;0.1056530
291685;0.0753500
291690;0.0947340
291700;0.0473396
291710;0.1263135
291720;0.0928962
291730;0.1059634
291733;0.0584570
291735;0.0579603
291740;0.0972626
291750;0.1596044
291760;0.0897415
291770;0.1187150
291780;0.0483287
291790;0.0342613
291800;0.1823869
291810;0.0734807
291820;0.0650551
291830;0.0707986
291835;0.0587757
291840;0.1804823
291845;0.0564807
291850;0.0553289
291855;0.0904054
291860;0.1006478
291870;0.0859815
291875;0.0428846
291880;0.0699065
291890;0.1707289
291900;0.0399165
291905;0.0573083
291910;0.0349757
291915;0.0608859
291920;0.4880918
291930;0.1267002
291940;0.0954721
291950;0.1037377
291955;0.3846069
291960;0.0313854
291970;0.1326362
291980;0.0856333
291990;0.0581520
291992;0.1993943
291995;0.0794047
292000;0.1276651
292010;0.0848940
292020;0.0438608
292030;0.0748165
292040;0.0546761
292045;0.0368408
292050;0.0699667
292060;0.0778976
292070;0.1112256
292080;0.0389413
292090;0.0641165
292100;0.1493057
292105;0.0488570
292110;0.1443349
292120;0.0812052
292130;0.0898200
292140;0.0331444
292145;0.0466878
292150;0.0357433
292160;0.0530178
292170;0.0769185
292180;0.1261069
292190;0.1573730
292200;0.1970918
292205;0.0290612
292210;0.0752567
292220;0.0975347
292225;0.0266666
292230;0.1366026
292240;0.0996302
292250;0.1294382
292260;0.0587702
292265;0.0317126
292270;0.0586948
292273;0.0966399
292275;0.1215422
292280;0.0227720
292285;0.0557124
292290;0.0515054
292300;0.1597432
292303;0.0576137
292305;0.0411271
292310;0.0405773
292320;0.0438808
292330;0.0872772
292335;0.0436693
292340;0.0624672
292350;0.0950432
292360;0.1209495
292370;0.0305918
292380;0.0786656
292390;0.0720057
292400;0.2124852
292405;0.0673295
292410;0.0576894
292420;0.0217092
292430;0.0451070
292440;0.0223937
292450;0.0701418
292460;0.0529272
292465;0.0983949
292467;0.0694559
292470;0.0681816
292480;0.0674884
292490;0.0783950
292500;0.0793548
292510;0.0873687
292520;0.1762229
292525;0.0520215
292530;0.2153105
292540;0.1189914
292550;0.1225806
292560;0.0614522
292570;0.0539982
292575;0.0649991
292580;0.0658964
292590;0.0385593
292593;0.0578616
292595;0.0505448
292600;0.0770008
292610;0.0967538
292620;0.0423439
292630;0.1026779
292640;0.0676989
292650;0.0307283
292660;0.1195379
292665;0.0804339
292670;0.1057136
292680;0.0528477
292690;0.0847012
292700;0.0695412
292710;0.0760644
292720;0.0887289
292730;0.0898758
292740;0.4263474
292750;0.0585993
292760;0.0472667
292770;0.1306137
292780;0.0708665
292790;0.0981084
292800;0.0662894
292805;0.0748896
292810;0.1126737
292820;0.0960869
292830;0.0689467
292840;0.0551239
292850;0.0530518
292860;0.1303025
292870;0.2111868
292880;0.1021766
292890;0.0955979
292895;0.1088873
292900;0.1082219
292905;0.1168464
292910;0.0683569
292920;0.1459612
292925;0.0405453
292930;0.1210367
292935;0.0590012
292937;0.0708140
292940;0.0723689
292950;0.1518598
292960;0.0890930
292970;0.0419032
292975;0.0894471
292980;0.0684333
292990;0.1043833
293000;0.0706856
293010;0.1582004
293015;0.0402496
293020;0.0449994
293030;0.0623288
293040;0.0642021
293050;0.1349707
293060;0.0785492
293070;0.1536430
293075;0.0000000
293076;0.0526603
293077;0.1171618
293080;0.0418619
293090;0.0433230
293100;0.0697684
293105;0.0782924
293110;0.1009282
293120;0.0640272
293130;0.0597494
293135;0.2410009
293140;0.0769996
293150;0.0790724
293160;0.0485110
293170;0.0890663
293180;0.0675038
293190;0.0697957
293200;0.0703087
293210;0.0873990
293220;0.1256941
293230;0.0913833
293240;0.0642576
293245;0.0100947
293250;0.0888557
293260;0.1015434
293270;0.1162076
293280;0.0657955
293290;0.1433135
293300;0.1314611
293305;0.0478338
293310;0.0840277
293315;0.0547745
293317;0.0804200
293320;0.1472759
293325;0.0947740
293330;0.2331470
293340;0.0756750
293345;0.0703527
293350;0.0660993
293360;0.0651589
310010;0.2674144
310020;0.3065379
310030;0.1807473
310040;0.1301885
310050;0.1188542
310060;0.0988583
310070;0.3368792
310080;0.2211428
310090;0.1475734
310100;0.0918192
310110;0.2366611
310120;0.2512702
310130;0.1689125
310140;0.2769857
310150;0.3289208
310160;0.3696831
310163;0.1703041
310170;0.1773262
310180;0.1350384
310190;0.2774235
310200;0.2036188
310205;0.2108079
310210;0.1282722
310220;0.1021133
310230;0.1878458
310240;0.0810802
310250;0.1264669
310260;0.3528024
310270;0.0758930
310280;0.2224310
310285;0.0815571
310290;0.1975347
310300;0.1424807
310310;0.2527786
310320;0.1971754
310330;0.1357091
310340;0.1293554
310350;0.3835603
310360;0.1719498
310370;0.1162830
310375;0.2626283
310380;0.3205572
310390;0.3031557
310400;0.4265268
310410;0.2717349
310420;0.3496055
310430;0.2800184
310440;0.2135444
310445;0.0806224
310450;0.1260730
310460;0.2865432
310470;0.1149092
310480;0.1610982
310490;0.1954187
310500;0.1803379
310510;0.3432768
310520;0.1061612
310530;0.2669615
310540;0.2487365
310550;0.1497568
310560;0.3650935
310570;0.1422562
310590;0.2244690
310600;0.1979932
310610;0.2253769
310620;0.7368319
310630;0.1780343
310640;0.2187885
310650;0.0961618
310660;0.0969644
310665;0.0784997
310670;0.2853452
310680;0.1295760
310690;0.3351878
310700;0.2534407
310710;0.2661556
310720;0.2328865
310730;0.1625908
310740;0.3945730
310750;0.2049416
310760;0.2987851
310770;0.2065015
310780;0.1260548
310790;0.1754943
310800;0.2273964
310810;0.2206000
310820;0.1951821
310825;0.0303226
310830;0.2910111
310840;0.2747428
310850;0.0638871
310855;0.1953068
310860;0.1183232
310870;0.1103398
310880;0.1569801
310890;0.2464393
310900;0.4572653
310910;0.2159552
310920;0.1747473
310925;0.1195319
310930;0.1729798
310940;0.1182922
310945;0.1805292
310950;0.2436720
310960;0.2544819
310970;0.2168076
310980;0.2964601
310990;0.2494940
311000;0.2702438
311010;0.1782976
311020;0.1301710
311030;0.2744321
311040;0.1610462
311050;0.2756515
311060;0.3234850
311070;0.2662895
311080;0.1312675
311090;0.3025251
311100;0.2339769
311110;0.3213447
311115;0.0693978
311120;0.2955993
311130;0.1921688
311140;0.3681120
311150;0.2824925
311160;0.1973070
311170;0.1576498
311180;0.3067394
311190;0.1954644
311200;0.2470038
311205;0.1170458
311210;0.1355288
311220;0.1292020
311230;0.1658350
311240;0.2401319
311250;0.2304390
311260;0.3125965
311265;0.1392364
311270;0.0902848
311280;0.3246055
311290;0.0947718
311300;0.0455262
311310;0.1186617
311320;0.1949891
311330;0.2837360
311340;0.2545234
311350;0.1492823
311360;0.2310845
311370;0.1768313
311380;0.1802662
311390;0.2328987
311400;0.2483814
311410;0.2109435
311420;0.2523934
311430;0.3010330
311440;0.3095462
311450;0.2623406
311455;0.3280207
311460;0.2615537
311470;0.2413504
311480;0.1983730
311490;0.1505767
311500;0.3232260
311510;0.3335579
311520;0.1998775
311530;0.3220708
311535;0.2386409
311540;0.1167942
311545;0.0558910
311547;0.0760974
311550;0.3122953
311560;0.1848867
311570;0.1552847
311580;0.2312465
311590;0.2472117
311600;0.1763908
311610;0.0833938
311615;0.1071387
311620;0.3091017
311630;0.0940047
311640;0.2615634
311650;0.1316689
311660;0.2854325
311670;0.1986176
311680;0.1102718
311690;0.3096644
311700;0.0806362
311710;0.2574831
311720;0.1548673
311730;0.3188889
311740;0.1934975
311750;0.1503602
311760;0.2681796
311770;0.2136100
311780;0.2340681
311783;0.0662172
311787;0.3174888
311790;0.2557665
311800;0.3283807
311810;0.0896013
311820;0.3157887
311830;0.3678797
311840;0.1825971
311850;0.1829444
311860;0.3713992
311870;0.2049670
311880;0.0926480
311890;0.1951858
311900;0.1873032
311910;0.1931629
311920;0.1433412
311930;0.3217312
311940;0.3219475
311950;0.0913149
311960;0.2562968
311970;0.2345635
311980;0.2820376
311990;0.2339573
311995;0.2194280
312000;0.1159721
312010;0.1163261
312015;0.1062169
312020;0.3166675
312030;0.0366202
312040;0.1935195
312050;0.1864026
312060;0.1915001
312070;0.3199926
312080;0.2131076
312083;0.1400346
312087;0.0823179
312090;0.2587787
312100;0.1071775
312110;0.1982123
312120;0.2972934
312125;0.2263795
312130;0.2032223
312140;0.1438638
312150;0.1526417
312160;0.2608851
312170;0.1074843
312180;0.1814578
312190;0.2122031
312200;0.1331305
312210;0.1639672
312220;0.1328731
312230;0.4210843
312235;0.1109440
312240;0.1943235
312245;0.0898994
312247;0.1655529
312250;0.2001208
312260;0.1489379
312270;0.2403819
312280;0.1554252
312290;0.2521149
312300;0.2255122
312310;0.1384049
312320;0.3262149
312330;0.1405178
312340;0.2604109
312350;0.3021464
312352;0.1532586
312360;0.2481372
312370;0.1543817
312380;0.1165360
312385;0.1410494
312390;0.2289359
312400;0.1682052
312410;0.1889779
312420;0.1946267
312430;0.1046795
312440;0.2297587
312450;0.2382564
312460;0.2677201
312470;0.2903360
312480;0.2651519
312490;0.2159511
312500;0.1669457
312510;0.3548996
312520;0.3092645
312530;0.2131544
312540;0.0940775
312550;0.1272821
312560;0.0937870
312570;0.1827483
312580;0.1508759
312590;0.1532901
312595;0.1099343
312600;0.3573573
312610;0.3446338
312620;0.1487328
312630;0.2556180
312640;0.1928273
312650;0.0934738
312660;0.1228537
312670;0.1136382
312675;0.0870535
312680;0.0954816
312690;0.1471322
312695;0.0523889
312700;0.2778423
312705;0.0799085
312707;0.0699621
312710;0.3561433
312720;0.1618483
312730;0.1720602
312733;0.0701419
312735;0.1152107
312737;0.1459821
312738;0.2571507
312740;0.2540879
312750;0.0828844
312760;0.1552360
312770;0.3189586
312780;0.1031253
312790;0.2544451
312800;0.2214584
312810;0.2137503
312820;0.1322812
312825;0.1051800
312830;0.2712230
312840;0.2614988
312850;0.2111857
312860;0.3173029
312870;0.3640767
312880;0.2296727
312890;0.2482134
312900;0.1945208
312910;0.2768120
312920;0.1843911
312930;0.1570753
312940;0.1411189
312950;0.2989331
312960;0.0807050
312965;0.0431403
312970;0.2982017
312980;0.2049430
312990;0.2296765
313000;0.1811986
313005;0.0797421
313010;0.2629056
313020;0.2666948
313030;0.3056680
313040;0.1985565
313050;0.2023589
313055;0.0991403
313060;0.2502969
313065;0.0880134
313070;0.2279875
313080;0.2836547
313090;0.1699540
313100;0.2125681
313110;0.1530655
313115;0.1665606
313120;0.2100160
313130;0.3944387
313140;0.2353642
313150;0.2884861
313160;0.2946963
313170;0.3301480
313180;0.1882784
313190;0.3502340
313200;0.0824893
313210;0.1037576
313220;0.2879037
313230;0.0805708
313240;0.4284343
313250;0.1242571
313260;0.2480350
313270;0.1431520
313280;0.1433345
313290;0.2190965
313300;0.2791451
313310;0.3265713
313320;0.1648655
313330;0.1262148
313340;0.3225857
313350;0.2625293
313360;0.2903537
313370;0.2164289
313375;0.3600385
313380;0.3915084
313390;0.1188608
313400;0.0718356
313410;0.1673785
313420;0.3904242
313430;0.2328671
313440;0.3757933
313450;0.2525074
313460;0.2417935
313470;0.1198544
313480;0.2488676
313490;0.3382770
313500;0.2193535
313505;0.1127945
313507;0.1172231
313510;0.1888359
313520;0.1262888
313530;0.2617066
313535;0.0672463
313540;0.1813022
313545;0.1040900
313550;0.1268222
313560;0.1180727
313570;0.3321527
313580;0.1285843
313590;0.2317426
313600;0.0838669
313610;0.1443213
313620;0.3360725
313630;0.2381803
313640;0.1580551
313650;0.1300501
313652;0.1096631
313655;0.1063116
313657;0.0611407
313660;0.1686236
313665;0.2071168
313670;0.5116167
313680;0.1161642
313690;0.3990711
313695;0.0409551
313700;0.0472318
313710;0.2744331
313720;0.3207911
313730;0.1096561
313740;0.1807466
313750;0.3096409
313753;0.2287998
313760;0.4750038
313770;0.2061956
313780;0.2675117
313790;0.1533569
313800;0.2617053
313810;0.1401324
313820;0.4406949
313830;0.2873561
313835;0.1143002
313840;0.2866551
313850;0.2049549
313860;0.2476205
313862;0.2701765
313865;0.0922974
313867;0.1259118
313868;0.0549091
313870;0.2161957
313880;0.3223741
313890;0.1335388
313900;0.3096146
313910;0.1990300
313920;0.1158854
313925;0.0832332
313930;0.0893899
313940;0.2718279
313950;0.2116025
313960;0.2197607
313970;0.2131176
313980;0.2853764
313990;0.1788170
314000;0.2912530
314010;0.1125285
314015;0.2243218
314020;0.2200716
314030;0.1770698
314040;0.1315290
314050;0.2659797
314053;0.1653265
314055;0.0997447
314060;0.0847553
314070;0.2580793
314080;0.2861406
314085;0.0786523
314090;0.1569852
314100;0.1236519
314110;0.2759133
314120;0.3097910
314130;0.3821831
314140;0.1174147
314150;0.1360385
314160;0.1933832
314170;0.1724174
314180;0.1009534
314190;0.1849128
314200;0.0955671
314210;0.1775904
314220;0.2377308
314225;0.0589760
314230;0.2308552
314240;0.3226442
314250;0.1396432
314260;0.2581179
314270;0.0942694
314280;0.2846619
314290;0.1151324
314300;0.2338282
314310;0.2829158
314315;0.0483797
314320;0.2675138
314330;0.2954364
314340;0.3564761
314345;0.0842335
314350;0.2708101
314360;0.1296626
314370;0.1539616
314380;0.1687659
314390;0.3394626
314400;0.1743791
314410;0.3327038
314420;0.1585635
314430;0.2602191
314435;0.1561724
314437;0.1714286
314440;0.2410399
314450;0.1940111
314460;0.2141222
314465;0.0346103
314467;0.0869678
314470;0.2698115
314480;0.8229652
314490;0.1464604
314500;0.3543609
314505;0.1033242
314510;0.2562699
314520;0.3246972
314530;0.0618180
314535;0.0633766
314537;0.1020054
314540;0.1782444
314545;0.1029724
314550;0.1860077
314560;0.2910681
314570;0.1590888
314580;0.1752058
314585;0.2144143
314587;0.0762222
314590;0.4141117
314600;0.3040070
314610;0.3147744
314620;0.0892337
314625;0.0732303
314630;0.0683911
314640;0.2616750
314650;0.3057307
314655;0.0420048
314660;0.2190408
314670;0.2210850
314675;0.0890220
314690;0.1796832
314700;0.2924148
314710;0.3337829
314720;0.2579116
314730;0.2745522
314740;0.2198825
314750;0.1886551
314760;0.2614977
314770;0.2275855
314780;0.2261328
314790;0.3929949
314795;0.0788507
314800;0.4065881
314810;0.3335168
314820;0.2542439
314830;0.1512942
314840;0.1085198
314850;0.1258515
314860;0.1424220
314870;0.1238762
314875;0.0578218
314880;0.1273187
314890;0.2471420
314900;0.1488814
314910;0.2018215
314915;0.0657467
314920;0.3468321
314930;0.3464649
314940;0.1175357
314950;0.2857827
314960;0.2322934
314970;0.3394659
314980;0.3534615
314990;0.2836690
314995;0.1109783
315000;0.1207541
315010;0.2101381
315015;0.1356050
315020;0.1654339
315030;0.1728341
315040;0.1673899
315050;0.2480416
315053;0.1200016
315057;0.0549197
315060;0.1863939
315070;0.3580281
315080;0.1010223
315090;0.2223064
315100;0.2329075
315110;0.2496244
315120;0.2379279
315130;0.2606851
315140;0.2899296
315150;0.3455068
315160;0.3366190
315170;0.2790568
315180;0.4646866
315190;0.1460732
315200;0.2497069
315210;0.3177045
315213;0.0768970
315217;0.0618080
315220;0.1028901
315230;0.1392182
315240;0.1125023
315250;0.4419408
315260;0.3047367
315270;0.2047595
315280;0.3618645
315290;0.3003997
315300;0.2661894
315310;0.1275692
315320;0.1604727
315330;0.0848945
315340;0.2190701
315350;0.1917115
315360;0.2098013
315370;0.2242080
315380;0.2251015
315390;0.2664215
315400;0.1871196
315410;0.2169665
315415;0.1816846
315420;0.2326402
315430;0.2108760
315440;0.1899650
315445;0.0931777
315450;0.0850029
315460;0.1931159
315470;0.3105778
315480;0.2833798
315490;0.2077920
315500;0.1909172
315510;0.0938746
315520;0.0961823
315530;0.2277242
315540;0.2466833
315550;0.3136460
315560;0.0787024
315570;0.2291574
315580;0.2908750
315590;0.2311886
315600;0.0766056
315610;0.1849360
315620;0.2100970
315630;0.2765143
315640;0.2704090
315645;0.1702203
315650;0.0694472
315660;0.1147895
315670;0.2715162
315680;0.1566178
315690;0.3467110
315700;0.1781479
315710;0.1045975
315720;0.2288303
315725;0.1336985
315727;0.1543912
315730;0.1485509
315733;0.2131012
315737;0.0722554
315740;0.1347893
315750;0.0949894
315760;0.1142356
315765;0.0547822
315770;0.3428897
315780;0.2384548
315790;0.1256073
315800;0.1609879
315810;0.1217646
315820;0.1505093
315830;0.2455408
315840;0.1832646
315850;0.1508215
315860;0.1916700
315870;0.1833275
315880;0.2120210
315890;0.1236832
315895;0.2101768
315900;0.1841167
315910;0.1476421
315920;0.2716566
315930;0.2519030
315935;0.1552757
315940;0.1581810
315950;0.1286579
315960;0.3438640
315970;0.2660435
315980;0.3404578
315990;0.1738764
316000;0.2186002
316010;0.1561123
316020;0.0625985
316030;0.0876732
316040;0.3176659
316045;0.0278860
316050;0.1535894
316060;0.1513118
316070;0.2440736
316080;0.1947876
316090;0.2098015
316095;0.1129324
316100;0.2194299
316105;0.1169385
316110;0.0910283
316120;0.1887857
316130;0.2805588
316140;0.1731787
316150;0.2032373
316160;0.1366425
316165;0.1470615
316170;0.2116910
316180;0.2468342
316190;0.1944026
316200;0.2586401
316210;0.3379583
316220;0.3185176
316225;0.0826924
316230;0.2464859
316240;0.0550218
316245;0.0189930
316250;0.3608059
316255;0.1404399
316257;0.1498059
316260;0.1495911
316265;0.0621983
316270;0.1003753
316280;0.1519248
316290;0.2879085
316292;0.2033066
316294;0.3206842
316295;0.2311186
316300;0.1012010
316310;0.2164628
316320;0.2309833
316330;0.1432258
316340;0.1780941
316350;0.1075659
316360;0.1462091
316370;0.4189507
316380;0.1562045
316390;0.2330539
316400;0.1835947
316410;0.1390235
316420;0.0922013
316430;0.3003439
316440;0.2429263
316443;0.1685898
316447;0.1137779
316450;0.0860328
316460;0.2569824
316470;0.3679974
316480;0.2095445
316490;0.2022380
316500;0.2052133
316510;0.2560150
316520;0.1795450
316530;0.2309635
316540;0.2032193
316550;0.1161344
316553;0.2612230
316555;0.0445151
316556;0.1491507
316557;0.1537490
316560;0.2351176
316570;0.1941271
316580;0.2181843
316590;0.0917074
316600;0.1145758
316610;0.1111389
316620;0.1045496
316630;0.1192107
316640;0.2367229
316650;0.0547735
316660;0.2275228
316670;0.1539553
316680;0.3250848
316690;0.1993670
316695;0.1012822
316700;0.1873934
316710;0.1257960
316720;0.3674281
316730;0.2022099
316740;0.2943193
316750;0.2536533
316760;0.1456233
316770;0.1293087
316780;0.2292263
316790;0.2139454
316800;0.1563240
316805;0.1136043
316810;0.3706492
316820;0.2059454
316830;0.1703327
316840;0.1405411
316850;0.1966204
316860;0.2623206
316870;0.3645573
316880;0.3869570
316890;0.2508226
316900;0.2433107
316905;0.1994347
316910;0.1868381
316920;0.2786036
316930;0.3219964
316935;0.2563204
316940;0.2890996
316950;0.1387908
316960;0.2944847
316970;0.1711083
316980;0.2570417
316990;0.3272254
317000;0.0708139
317005;0.1357210
317010;0.4874275
317020;0.4985308
317030;0.1170080
317040;0.3100386
317043;0.2400899
317047;0.1330434
317050;0.1705832
317052;0.0741416
317057;0.1519488
317060;0.2348557
317065;0.0760819
317070;0.4387213
317075;0.2463100
317080;0.1618725
317090;0.0703238
317100;0.2900848
317103;0.0736052
317107;0.0980434
317110;0.2658295
317115;0.1133510
317120;0.2285809
317130;0.4287354
317140;0.1619344
317150;0.1070819
317160;0.0879531
317170;0.1596273
317180;0.1600275
317190;0.1251413
317200;0.2806779
317210;0.2032561
317220;0.2002889
350010;0.4519874
350020;0.3173074
350030;0.2861127
350040;0.4193133
350050;0.3813461
350055;0.3993640
350060;0.8408625
350070;0.3170433
350075;0.2644472
350080;0.3089624
350090;0.2696120
350100;0.3526958
350110;0.2737964
350115;0.3641092
350120;0.2708930
350130;0.2972878
350140;0.2341682
350150;0.2578995
350160;0.5994118
350170;0.3024685
350180;0.3336227
350190;0.4749653
350200;0.3863661
350210;0.4096567
350220;0.2743357
350230;0.2537364
350240;0.2444888
350250;0.3531055
350260;0.2644882
350270;0.2201297
350275;0.3224740
350280;0.4977411
350290;0.4412562
350300;0.3375031
350310;0.2487548
350315;0.1995539
350320;0.5300165
350330;0.4624498
350335;0.2417376
350340;0.3376852
350350;0.1560119
350360;0.2599409
350370;0.3732241
350380;0.3681537
350390;0.4265549
350395;0.2559160
350400;0.4731329
350410;0.5161454
350420;0.3782318
350430;0.2418254
350440;0.2712310
350450;0.4214065
350460;0.3896541
350470;0.3022405
350480;0.4200271
350490;0.2763938
350500;0.2547189
350510;0.2570535
350520;0.3795679
350530;0.4154525
350535;0.1224223
350540;0.1604268
350550;0.4594286
350560;0.2779601
350570;0.5153028
350580;0.2705436
350590;0.4145388
350600;0.5418416
350610;0.3997949
350620;0.3226796
350630;0.3124544
350635;0.3377481
350640;0.4040986
350650;0.3940451
350660;0.2420394
350670;0.2612098
350680;0.3792419
350690;0.2529843
350700;0.4249014
350710;0.3303442
350715;0.1398567
350720;0.3088963
350730;0.3145444
350740;0.3164526
350745;0.2598546
350750;0.5306450
350760;0.4513240
350770;0.3443062
350775;0.2841811
350780;0.3593366
350790;0.3648386
350800;0.1766054
350810;0.3606561
350820;0.3868752
350830;0.2254815
350840;0.3146347
350850;0.4087108
350860;0.3457459
350870;0.2585428
350880;0.3212844
350890;0.2564048
350900;0.3846042
350910;0.2061159
350920;0.3081114
350925;0.1903002
350930;0.3289012
350940;0.2856340
350945;0.2163705
350950;0.6951276
350960;0.3801697
350970;0.3041534
350980;0.2424194
350990;0.2475401
350995;0.1899233
351000;0.3086844
351010;0.3571473
351015;0.2063039
351020;0.2221074
351030;0.2277706
351040;0.3743455
351050;0.3566402
351060;0.3104697
351070;0.2847771
351080;0.3859096
351090;0.2650941
351100;0.2572625
351110;0.4836359
351120;0.3796668
351130;0.4202327
351140;0.3213254
351150;0.4526742
351160;0.2950864
351170;0.3360876
351190;0.3116965
351200;0.3369564
351210;0.2813253
351220;0.2735041
351230;0.3493364
351240;0.3930448
351250;0.3052173
351260;0.1926827
351270;0.3579052
351280;0.3987454
351290;0.3129690
351300;0.5210078
351310;0.3700325
351320;0.3316063
351330;0.3386693
351340;0.3603601
351350;0.3038623
351360;0.1840692
351370;0.3754309
351380;0.3022498
351385;0.2475174
351390;0.3151460
351400;0.2914802
351410;0.3392819
351420;0.3069211
351430;0.3415662
351440;0.4414991
351450;0.3308903
351460;0.3412083
351470;0.3122974
351480;0.1706334
351490;0.2721202
351492;0.3382686
351495;0.3828161
351500;0.2424366
351510;0.2692770
351512;0.2988989
351515;0.3362095
351518;0.4242321
351519;0.2407800
351520;0.3918212
351530;0.3039744
351535;0.1933835
351540;0.2957324
351550;0.4431473
351560;0.4130102
351565;0.2257049
351570;0.2303964
351580;0.2437155
351590;0.3800578
351600;0.2953068
351610;0.2393353
351620;0.4060770
351630;0.1858475
351640;0.2630803
351650;0.3620641
351660;0.2776718
351670;0.3584141
351680;0.3569848
351685;0.3100256
351690;0.3851536
351700;0.2856884
351710;0.3316270
351720;0.2917628
351730;0.2371022
351740;0.3626313
351750;0.3388913
351760;0.1258821
351770;0.2880357
351780;0.2954524
351790;0.2958175
351800;0.2568438
351810;0.2647654
351820;0.3573485
351830;0.3401193
351840;0.4642075
351850;0.2596548
351860;0.3114215
351870;0.3273019
351880;0.3513131
351885;0.2863499
351890;0.2325583
351900;0.2294193
351905;0.6090259
351907;0.3046066
351910;0.3559895
351920;0.2978417
351925;0.2086284
351930;0.2637798
351940;0.3763144
351950;0.2743203
351960;0.3451132
351970;0.2603280
351980;0.3336720
351990;0.2886064
352000;0.2622841
352010;0.3781825
352020;0.3182863
352030;0.2221879
352040;0.3809948
352042;0.2662103
352044;0.5313062
352050;0.5534621
352060;0.3232722
352070;0.3388182
352080;0.2926082
352090;0.3027384
352100;0.2367453
352110;0.3908399
352115;0.3250211
352120;0.1434801
352130;0.3461172
352140;0.3980642
352150;0.2890682
352160;0.2717720
352170;0.1927953
352180;0.2578331
352190;0.3858925
352200;0.2715162
352210;0.2986699
352215;0.1392659
352220;0.2556110
352230;0.3560459
352240;0.2688086
352250;0.2398554
352260;0.4052356
352265;0.1080479
352270;0.3685248
352280;0.2225422
352290;0.3259280
352300;0.2233829
352310;0.1979617
352320;0.2384994
352330;0.1694714
352340;0.5206629
352350;0.2715563
352360;0.3512687
352370;0.2124448
352380;0.2931200
352390;0.4952017
352400;0.4210810
352410;0.4243215
352420;0.2623108
352430;0.5000238
352440;0.4066690
352450;0.3292456
352460;0.2463241
352470;0.5014365
352480;0.4196147
352490;0.3775280
352500;0.3830193
352510;0.3265752
352520;0.3323790
352530;0.4550927
352540;0.2529833
352550;0.3237979
352560;0.2783094
352570;0.4012428
352580;0.2155923
352585;0.3577428
352590;0.6852144
352600;0.3606523
352610;0.1939429
352620;0.1925706
352630;0.2411509
352640;0.3712705
352650;0.2919672
352660;0.2116244
352670;0.3374057
352680;0.4007906
352690;0.4413887
352700;0.3674057
352710;0.4657446
352720;0.3814523
352725;0.3016060
352730;0.4649028
352740;0.3364274
352750;0.3627558
352760;0.3006895
352770;0.2645898
352780;0.2438903
352790;0.2612653
352800;0.3619177
352810;0.3444054
352820;0.3037117
352830;0.3694010
352840;0.3220015
352850;0.4219172
352860;0.3098813
352870;0.2104200
352880;0.3229029
352885;0.3897836
352890;0.2534123
352900;0.4639530
352910;0.2589687
352920;0.2855049
352930;0.3805486
352940;0.3158271
352950;0.3527247
352960;0.3273654
352965;0.2553323
352970;0.2990085
352980;0.3154873
352990;0.1735495
353000;0.2936255
353010;0.3612845
353020;0.2285496
353030;0.4309665
353040;0.2809096
353050;0.3535584
353060;0.4357509
353070;0.3795164
353080;0.4841605
353090;0.3093386
353100;0.3652233
353110;0.2971758
353120;0.4578988
353130;0.4116839
353140;0.4543234
353150;0.3997407
353160;0.2990320
353170;0.2899978
353180;0.2901849
353190;0.3035380
353200;0.3728533
353205;0.2479013
353210;0.3055691
353215;0.2291012
353220;0.2248070
353230;0.1981785
353240;0.2501569
353250;0.4026376
353260;0.4221890
353270;0.3303285
353280;0.3396760
353282;0.1072828
353284;0.2613061
353286;0.3225755
353290;0.3276897
353300;0.3467364
353310;0.2904843
353320;0.2932268
353325;0.3041458
353330;0.3272789
353340;0.4266329
353350;0.3988402
353360;0.3787386
353370;0.2554711
353380;0.2829966
353390;0.4010196
353400;0.2854232
353410;0.3399209
353420;0.3544695
353430;0.4352639
353440;0.4358854
353450;0.3045864
353460;0.3805420
353470;0.4116045
353475;0.3570945
353480;0.2167113
353490;0.3222301
353500;0.3401177
353510;0.2936265
353520;0.3274308
353530;0.3316190
353540;0.2968830
353550;0.3240428
353560;0.2976960
353570;0.4240617
353580;0.2745662
353590;0.2942955
353600;0.2813002
353610;0.3171772
353620;0.2583319
353625;0.3062607
353630;0.2903113
353640;0.2724913
353650;0.5861156
353657;0.2617587
353660;0.3032114
353670;0.3463127
353680;0.2374811
353690;0.2964453
353700;0.3091702
353710;0.3861304
353715;0.3672149
353720;0.2019950
353730;0.3989404
353740;0.3321243
353750;0.3263053
353760;0.3184824
353770;0.2739274
353780;0.2522258
353790;0.2344149
353800;0.3840222
353810;0.3768744
353820;0.3017859
353830;0.2437963
353850;0.3233919
353860;0.3296946
353870;0.5467177
353880;0.3650911
353890;0.3630322
353900;0.4215747
353910;0.2180390
353920;0.3246098
353930;0.5141477
353940;0.4502210
353950;0.2965556
353960;0.2844607
353970;0.2374020
353980;0.3048614
353990;0.4074316
354000;0.4066407
354010;0.3405028
354020;0.3032152
354025;0.2487916
354030;0.3339807
354040;0.2909900
354050;0.2914116
354060;0.3606147
354070;0.3613911
354075;0.1947796
354080;0.3996126
354085;0.2087532
354090;0.3602724
354100;0.3706767
354105;0.2709338
354110;0.2995361
354120;0.3436784
354130;0.3066880
354140;0.5233215
354150;0.4200326
354160;0.3281936
354165;0.3131332
354170;0.3184120
354180;0.2285873
354190;0.2174190
354200;0.2659165
354210;0.3213692
354220;0.3253091
354230;0.1873835
354240;0.3545670
354250;0.3327765
354260;0.3117875
354270;0.2210283
354280;0.1663121
354290;0.3197700
354300;0.1108259
354310;0.2692054
354320;0.3319014
354323;0.2208744
354325;0.1694211
354330;0.4129015
354340;0.6392606
354350;0.1664643
354360;0.3271411
354370;0.2915736
354380;0.2839933
354390;0.4937770
354400;0.3779389
354410;0.2493701
354420;0.2647018
354425;0.3233298
354430;0.2881617
354440;0.3011189
354450;0.2965174
354460;0.3217044
354470;0.2559773
354480;0.3200484
354490;0.3886227
354500;0.2687527
354510;0.2251665
354515;0.4798464
354520;0.4315088
354530;0.2870531
354540;0.2456220
354550;0.2427170
354560;0.3998422
354570;0.3432873
354580;0.4150785
354600;0.3197041
354610;0.3220184
354620;0.5279108
354625;0.3459326
354630;0.3241714
354640;0.4061842
354650;0.3129614
354660;0.4266229
354670;0.3390426
354680;0.2879802
354690;0.2951818
354700;0.2366490
354710;0.2608607
354720;0.4266218
354730;0.9474785
354740;0.3083161
354750;0.4469455
354760;0.3569664
354765;0.3696444
354770;0.3200768
354780;0.6174015
354790;0.2702600
354800;0.3175484
354805;0.2986534
354810;0.3018802
354820;0.3162493
354830;0.2523477
354840;0.2511074
354850;0.8511119
354860;0.2729406
354870;0.5651407
354880;1.0000000
354890;0.5493414
354900;0.2563940
354910;0.4800147
354920;0.2453496
354925;0.2799801
354930;0.3400344
354940;0.4109743
354950;0.2669168
354960;0.2266094
354970;0.3819587
354980;0.5897285
354990;0.5720276
354995;0.2635075
355000;0.2454336
355010;0.3546934
355020;0.2232598
355040;0.3867046
355050;0.2348867
355060;0.4489251
355070;0.3925461
355080;0.2968215
355090;0.3629405
355100;0.3700346
355110;0.2742281
355120;0.2194929
355130;0.3986525
355140;0.2696081
355150;0.3062820
355160;0.4625027
355170;0.4509141
355180;0.1774878
355190;0.2859166
355200;0.2215580
355210;0.3676236
355220;0.5170959
355230;0.3412642
355240;0.3730611
355250;0.2942403
355255;0.2267603
355260;0.3685228
355270;0.3098118
355280;0.3700957
355290;0.2728183
355300;0.2677613
355310;0.2891640
355320;0.4075990
355330;0.3422621
355340;0.3792804
355350;0.1943157
355360;0.2916189
355365;0.3346882
355370;0.3568283
355380;0.2590927
355385;0.1416329
355390;0.2261334
355395;0.3061381
355400;0.3771781
355410;0.4985153
355420;0.1928709
355430;0.2579824
355440;0.3249972
355450;0.4512916
355460;0.2454502
355465;0.2583799
355470;0.3706166
355475;0.2449804
355480;0.4527911
355490;0.3170156
355495;0.3073178
355500;0.3913849
355510;0.4316882
355520;0.3733622
355530;0.3545329
355535;0.2423102
355540;0.3070298
355550;0.2743698
355560;0.3301791
355570;0.3052054
355580;0.3228424
355590;0.2536527
355600;0.3870907
355610;0.3196118
355620;0.7703870
355630;0.3383069
355635;0.2986104
355640;0.3215074
355645;0.4080765
355650;0.3084360
355660;0.3325154
355670;0.8127578
355680;0.3445002
355690;0.3887783
355695;0.2676700
355700;0.3557046
355710;0.4686417
355715;0.2824687
355720;0.3178135
355730;0.3144231
430003;0.3201973
430005;0.5021293
430010;0.4020841
430020;0.4724126
430030;0.2367603
430040;0.3492176
430045;0.3777937
430047;0.3625402
430050;0.2395663
430055;0.3982126
430057;0.3796958
430060;0.2620139
430063;0.1990770
430064;0.2306533
430066;0.3974127
430070;0.3932378
430080;0.4799604
430085;0.2865256
430087;0.2684347
430090;0.4905298
430100;0.4718581
430105;0.3811214
430107;0.2829094
430110;0.2754147
430120;0.2770353
430130;0.2385477
430140;0.3133850
430150;0.5753286
430155;0.3048982
430160;0.3590808
430163;0.3146597
430165;0.4474925
430170;0.3643226
430175;0.1902473
430180;0.3006591
430185;0.2408357
430187;0.1600096
430190;0.2810915
430192;0.3256189
430195;0.3907945
430200;0.2235017
430205;0.1313491
430210;0.6008445
430215;0.2501141
430220;0.4618281
430222;0.3259674
430223;0.3316054
430225;0.4725505
430230;0.2511607
430235;0.4286204
430237;0.2681480
430240;0.3601236
430245;0.2916566
430250;0.2325877
430258;0.4413729
430260;0.2255782
430265;0.3361383
430270;0.2649094
430280;0.2778966
430290;0.2568121
430300;0.3650971
430310;0.4070371
430320;0.2366897
430330;0.3125067
430340;0.3233416
430350;0.3156930
430355;0.4855097
430360;0.2974978
430367;0.3596258
430370;0.3082885
430380;0.4127004
430390;0.4239230
430400;0.2682236
430410;0.2990900
430420;0.2793817
430430;0.3289295
430435;0.3073615
430440;0.3895191
430450;0.2197737
430460;0.4515448
430461;0.4234621
430462;0.1949233
430463;0.4032693
430465;0.2475650
430466;0.2063686
430467;0.4831312
430468;0.2472541
430469;0.4284458
430470;0.4244026
430471;0.2064303
430480;0.6075476
430485;0.3171614
430490;0.4860082
430495;0.2747913
430500;0.3821560
430510;0.6168991
430511;0.2828206
430512;0.2036526
430513;0.2212751
430515;0.2047094
430517;0.2079799
430520;0.4137856
430530;0.4034301
430535;0.3628474
430537;0.3076830
430540;0.3544778
430543;0.2184746
430544;0.2046348
430545;0.3652800
430550;0.3100341
430558;0.5270324
430560;0.4968139
430570;0.3418005
430580;0.3097529
430583;0.3315945
430585;0.4383910
430587;0.5245696
430590;0.2203665
430593;0.4605865
430595;0.4112041
430597;0.3312703
430600;0.2931117
430605;0.2533525
430607;0.1617538
430610;0.4088715
430613;0.3098616
430620;0.3699521
430630;0.3373640
430632;0.2124305
430635;0.1680548
430637;0.2307713
430640;0.4634006
430642;0.2177494
430645;0.4592570
430650;0.1788060
430655;0.2654158
430660;0.3038493
430670;0.2941239
430673;0.3134005
430675;0.4105897
430676;0.3138908
430680;0.4649919
430690;0.2340631
430692;0.3604856
430693;0.2713335
430695;0.2718508
430697;0.3047200
430700;0.5121032
430705;0.3232825
430710;0.2744267
430720;0.2848328
430730;0.2079970
430740;0.2630568
430745;0.2203356
430750;0.3962422
430755;0.4027157
430760;0.4049541
430770;0.4542643
430780;0.5249706
430781;0.2496339
430783;0.2787124
430786;0.4952975
430790;0.5240520
430800;0.3682722
430805;0.2030989
430807;0.3130112
430810;0.4512011
430820;0.4987393
430825;0.3078148
430830;0.2173405
430840;0.2366646
430843;0.3864432
430845;0.4842475
430850;0.4221742
430860;0.5728407
430865;0.2074871
430870;0.4079433
430880;0.2944225
430885;0.3302857
430890;0.4183495
430900;0.2876007
430905;0.3500533
430910;0.5091078
430912;0.2234984
430915;0.1911105
430920;0.3584840
430925;0.6595273
430930;0.3502290
430940;0.4919039
430950;0.3115543
430955;0.4549224
430957;0.2192913
430960;0.4798886
430965;0.1929348
430970;0.4064549
430975;0.2659311
430980;0.4872044
430990;0.3500685
430995;0.2492590
431000;0.5678856
431010;0.3852087
431020;0.4692641
431030;0.4089014
431033;0.4276727
431036;0.4979109
431040;0.3214146
431041;0.2173438
431043;0.3853299
431046;0.7027999
431050;0.2453980
431053;0.4411437
431055;0.1880555
431057;0.2420350
431060;0.2672960
431065;0.2382143
431070;0.2415974
431075;0.3276474
431080;0.5394707
431085;0.1833928
431087;0.2381685
431090;0.3280743
431100;0.3108301
431110;0.3366851
431112;0.1720110
431113;0.1864586
431115;0.3366587
431120;0.3305158
431123;0.2523012
431125;0.1658665
431127;0.5248227
431130;0.3765296
431140;0.5869138
431142;0.1047050
431150;0.2592362
431160;0.2407050
431162;0.3184401
431164;0.3660727
431170;0.2952631
431171;0.2039205
431173;0.1734585
431175;0.2463867
431177;0.2758279
431179;0.3669612
431180;0.4534592
431190;0.3659723
431198;0.2574555
431200;0.4872507
431205;0.4152443
431210;0.2505012
431213;0.4073763
431215;0.3536428
431217;0.3034441
431220;0.2586428
431225;0.2619914
431230;0.3132441
431235;0.5725734
431237;0.1796490
431238;0.4213351
431240;0.4358365
431242;0.2965980
431244;0.3370687
431245;0.2899327
431247;0.4114243
431250;0.2719443
431260;0.4450576
431261;0.2773213
431262;0.3655389
431265;0.5037670
431267;0.4558489
431270;0.2860746
431275;0.3818356
431280;0.5502736
431290;0.5311420
431295;0.4761387
431300;0.7367245
431301;0.4414070
431303;0.3302566
431306;0.2795252
431308;0.4614021
431310;0.4109506
431320;0.5224988
431330;0.5065051
431333;0.4121127
431335;0.4975669
431337;0.3238887
431339;0.2703375
431340;0.4865625
431342;0.2427150
431344;0.2347541
431346;0.3888488
431349;0.2649867
431350;0.4519106
431360;0.2913949
431365;0.2956734
431370;0.3247490
431380;0.2775401
431390;0.4176033
431395;0.2333932
431400;0.5107806
431402;0.2807250
431403;0.3985369
431405;0.2976154
431406;0.1731064
431407;0.3198552
431410;0.5244911
431413;0.3906874
431415;0.3004203
431417;0.1865103
431420;0.2346138
431430;0.4334604
431440;0.4185637
431442;0.4165358
431445;0.2833793
431446;0.1979738
431447;0.2271190
431449;0.3151361
431450;0.2552697
431455;0.2212790
431460;0.2199796
431470;0.2323766
431475;0.4050984
431477;0.2742691
431478;0.3672258
431480;0.3332705
431490;0.8740052
431500;0.2770179
431505;0.2345020
431507;0.2271058
431510;0.2613959
431513;0.4357151
431514;0.3856521
431515;0.3097002
431517;0.5015119
431520;0.3763019
431530;0.2424242
431531;0.2388327
431532;0.2086295
431535;0.6500497
431540;0.1107187
431545;0.3769544
431550;0.2946649
431555;0.2057935
431560;0.4067276
431570;0.2751073
431575;0.2786756
431580;0.3988027
431590;0.3807858
431595;0.2097776
431600;0.3219888
431610;0.3522311
431620;0.4559226
431630;0.2725960
431640;0.2994963
431642;0.1822886
431643;0.4627267
431645;0.2996047
431647;0.3426104
431650;0.4334257
431660;0.4294061
431670;0.3553378
431673;0.4540993
431675;0.4337674
431680;0.5138287
431690;0.5564289
431695;0.3405165
431697;0.2665257
431700;0.1612489
431710;0.3172234
431720;0.4345812
431725;0.4572925
431730;0.2925034
431740;0.4055010
431750;0.4579461
431755;0.5053890
431760;0.3208544
431770;0.2117935
431775;0.2977431
431780;0.3953316
431790;0.4112270
431795;0.2854572
431800;0.3058701
431805;0.4846007
431810;0.2462055
431820;0.2876010
431830;0.3300408
431840;0.3545636
431842;0.3224015
431843;0.4066622
431844;0.4490900
431845;0.2088645
431846;0.2753821
431848;0.3520136
431849;0.3724371
431850;0.1929124
431860;0.4111845
431861;0.4963640
431862;0.2144765
431870;0.4533478
431880;0.3238787
431890;0.3550469
431900;0.4675488
431910;0.4192620
431912;0.2278238
431915;0.2644485
431920;0.1885579
431930;0.2430885
431935;0.4040155
431936;0.1900710
431937;0.4699946
431940;0.2853884
431950;0.3950666
431960;0.3015061
431970;0.3614374
431971;0.5394421
431973;0.2315712
431975;0.4543955
431980;0.2948525
431990;0.3428497
432000;0.3377280
432010;0.4578547
432020;0.2728426
432023;0.3210717
432026;0.2262084
432030;0.5776141
432032;0.2650630
432035;0.2126935
432040;0.4556675
432045;0.2803776
432050;0.4302633
432055;0.3487331
432057;0.2324630
432060;0.3388339
432065;0.3854904
432067;0.2574515
432070;0.3486855
432080;0.3217345
432085;0.2955342
432090;0.4617799
432100;0.3922431
432110;0.2984052
432120;0.4138912
432130;0.3602959
432132;0.3754762
432135;0.2820615
432140;0.2854314
432143;0.2896626
432145;0.4350154
432146;0.3258387
432147;0.2551766
432149;0.2373954
432150;0.4356782
432160;0.3627257
432162;0.4236930
432163;0.4530104
432166;0.3351188
432170;0.3840762
432180;0.4083135
432183;0.2037291
432185;0.3509626
432190;0.3977180
432195;0.2340155
432200;0.3165489
432210;0.3703951
432215;0.1996010
432218;0.2535568
432220;0.3203099
432225;0.4372342
432230;0.3710177
432232;0.2337951
432234;0.2664126
432235;0.5481567
432237;0.1795446
432240;0.3169447
432250;0.3757288
432252;0.2104878
432253;0.2218025
432254;0.4273531
432255;0.3506291
432260;0.3576942
432270;0.3263017
432280;0.5097960
432285;0.4244060
432290;0.3185284
432300;0.3169636
432310;0.1539648
432320;0.5424063
432330;0.3676346
432335;0.4755073
432340;0.5557933
432345;0.1998295
432350;0.4607890
432360;0.6304923
432370;0.4429736
432375;0.2004419
432377;0.5858154
432380;0.4001405
