cod_muni;qtd_domi;qtd_mora
290010;2574;8301
290020;4314;16991
290030;4082;14503
290035;4522;15663
290040;4585;15659
290050;2656;10840
290060;1359;4571
290070;41581;141421
290080;5988;21094
290090;1961;6309
290100;10382;34229
290110;7149;25112
290115;4325;15920
290120;7222;25438
290130;3747;13910
290135;4621;14398
290140;3762;13937
290150;2468;9970
290160;4624;16949
290170;2890;11540
290180;3084;10995
290190;5172;17683
290195;2115;7404
290200;3635;13675
290205;3121;11473
290210;13612;51536
290220;2675;10002
290225;3029;10345
290230;2417;8570
290240;3923;13585
290250;3814;13787
290260;5716;20005
290265;3033;11794
290270;11455;49097
290280;5617;21155
290290;9207;34747
290300;4105;13933
290310;1798;6263
290320;38577;136952
290323;3977;13571
290327;3871;14168
290330;1938;6405
290340;6360;21581
290350;4359;15957
290360;4120;14796
290370;4223;15369
290380;4944;17878
290390;16334;62909
290395;2624;10111
290400;3392;13683
290405;3959;14816
290410;5794;22010
290420;2934;11094
290430;3941;14207
290440;3127;11017
290450;3199;10697
290460;18506;64506
290470;5489;18572
290475;4588;19569
290480;2924;11401
290485;4314;17294
290490;9264;31218
290500;6330;22222
290510;2960;10340
290515;3211;13618
290520;12781;47332
290530;4740;17169
290540;4645;14847
290550;3525;12469
290560;9067;31373
290570;73975;242467
290580;9421;35062
290590;7613;28052
290600;17999;66441
290610;2555;9400
290620;6951;23950
290630;9720;32164
290640;2553;8874
290650;24886;82823
290660;3634;13065
290670;7881;27903
290680;8973;32849
290682;4220;15545
290685;3755;11503
290687;8344;26421
290689;2858;10041
290690;6116;21183
290700;2375;8842
290710;7294;28285
290720;17074;64848
290730;7196;25372
290740;748;2573
290750;15169;50934
290755;2410;8838
290760;4938;16973
290770;2739;10713
290780;10148;32169
290790;4396;15622
290800;6481;20937
290810;4845;18056
290820;5623;20159
290830;5081;17784
290840;18519;61962
290850;8892;30067
290860;6098;23396
290870;4692;16876
290880;1321;4584
290890;6225;22358
290900;2203;8139
290910;4228;14236
290920;4868;16961
290930;8755;31143
290940;3708;13467
290950;1464;5024
290960;5981;19907
290970;3724;13273
290980;17226;58487
290990;8635;32000
291000;3381;12805
291005;19888;66238
291010;2949;11256
291020;1179;3871
291030;2558;7926
291040;6607;23630
291050;11087;39762
291060;8645;32687
291070;15822;56014
291072;29461;99694
291075;5241;17553
291077;1742;6163
291080;162835;554472
291085;4788;16716
291090;1584;5297
291100;3030;10638
291110;5574;22440
291120;9215;30199
291125;1326;4370
291130;2968;10591
291140;4282;15062
291150;2241;8317
291160;5402;19747
291165;2649;10334
291170;22288;78644
291180;6718;22098
291185;3829;13173
291190;7343;25673
291200;2791;10034
291210;7549;24195
291220;4720;17163
291230;4725;15492
291240;4826;16586
291250;3787;14166
291260;1392;4820
291270;6332;22472
291280;2418;7822
291290;5590;18900
291300;4212;15490
291310;5207;17796
291320;7152;25342
291330;1555;5226
291340;3967;15183
291345;3554;13262
291350;7381;25452
291360;55950;183270
291370;10140;36228
291380;3836;15319
291390;13076;44167
291400;17046;59173
291410;2730;9275
291420;2113;6999
291430;3239;11966
291440;6105;22569
291450;7803;27348
291460;19622;65955
291465;7890;28005
291470;17743;61417
291480;63020;203740
291490;6758;23894
291500;4071;14840
291510;3691;13027
291520;4226;15089
291530;2157;7080
291535;3529;13140
291540;2171;7305
291550;6397;21033
291560;18636;62775
291570;2387;7861
291580;6077;22913
291590;2148;7567
291600;6228;20150
291610;6341;20621
291620;3332;10971
291630;2996;10413
291640;19272;68059
291650;8992;32097
291660;2752;10154
291670;2219;7648
291680;5331;18517
291685;4172;14483
291690;3794;12666
291700;9991;36060
291710;5947;19880
291720;4973;18097
291730;7388;26416
291733;2760;10885
291735;2635;8877
291740;3681;13631
291750;24865;79064
291760;14038;50426
291770;9026;30057
291780;4584;16304
291790;2693;10250
291800;45270;150874
291810;10734;37458
291820;3985;14074
291830;4093;14006
291835;6233;22474
291840;54977;197246
291845;3004;10245
291850;4174;15007
291855;1996;6443
291860;2346;7905
291870;1234;3855
291875;3311;13932
291880;6355;22134
291890;1215;3717
291900;1114;3924
291905;2430;8269
291910;2452;9552
291915;7277;25531
291920;49435;162403
291930;2985;10206
291940;3462;12227
291950;11394;42655
291955;17769;59654
291960;3324;11207
291970;4960;17038
291980;12102;47017
291990;2098;8057
291992;5172;17329
291995;1982;7029
292000;2700;8767
292010;5805;19276
292020;3846;15826
292030;2286;8192
292040;3953;14380
292045;2811;12464
292050;7489;24538
292060;12003;42610
292070;5162;18808
292080;2885;10419
292090;4079;14465
292100;11693;39911
292105;2721;11066
292110;6811;21415
292120;8120;26440
292130;3118;10272
292140;4591;16057
292145;2786;10501
292150;14487;52303
292160;2391;8262
292170;9915;35019
292180;3418;12368
292190;3053;10503
292200;10541;35773
292205;3307;12212
292210;6720;24328
292220;2249;7298
292225;2622;10191
292230;8318;28890
292240;6480;21380
292250;7981;27160
292260;3556;12484
292265;3320;12361
292270;4977;16629
292273;2408;7570
292275;2022;6621
292280;2096;7434
292285;2120;8016
292290;6904;24104
292300;11177;38388
292303;3051;10500
292305;3624;14983
292310;7126;24863
292320;6093;21702
292330;2417;8287
292335;4668;16389
292340;5500;20757
292350;2441;8351
292360;5575;20779
292370;7211;29483
292380;7973;27454
292390;3152;10747
292400;31126;107755
292405;4052;13687
292410;1877;6873
292420;4274;16660
292430;4858;17973
292440;8193;32744
292450;4164;15616
292460;6053;19966
292465;2851;10252
292467;2633;9702
292470;3349;12708
292480;6671;22333
292490;2514;8704
292500;6891;24456
292510;12887;44618
292520;9605;33016
292525;4501;15690
292530;38331;125938
292540;2808;9778
292550;7559;27064
292560;4039;13685
292570;3757;13485
292575;6509;23742
292580;7008;24532
292590;7232;27072
292593;3023;9501
292595;6265;22844
292600;10585;38871
292610;3675;12024
292620;5902;21882
292630;10146;33114
292640;7930;30338
292650;3933;14200
292660;13783;47298
292665;2426;8565
292670;3673;12824
292680;4012;14811
292690;3249;11909
292700;10648;37094
292710;2089;7740
292720;8635;29359
292730;3833;13424
292740;858789;2663922
292750;5413;19051
292760;4174;14974
292770;7784;26042
292780;1761;6670
292790;3226;10317
292800;9440;33694
292805;3971;13226
292810;11088;40071
292820;6956;24674
292830;2480;8755
292840;7171;26080
292850;2886;9638
292860;16993;57443
292870;27393;90574
292880;13126;47724
292890;7019;27182
292895;2911;9218
292900;3695;14078
292905;3683;13007
292910;5896;20121
292920;9429;32947
292925;5121;18352
292930;9015;33232
292935;1700;5652
292937;3142;10161
292940;3098;10396
292950;12268;41882
292960;4779;16553
292970;5156;18902
292975;3523;11115
292980;3539;11829
292990;11493;41714
293000;2628;10340
293010;22072;74236
293015;8272;31563
293020;9119;37152
293030;4990;18091
293040;4294;15319
293050;21765;76166
293060;4044;12281
293070;35000;117336
293075;2915;11869
293076;3772;12557
293077;6080;21832
293080;4080;15493
293090;3058;11292
293100;5679;19990
293105;4374;16108
293110;2222;8003
293120;5113;18716
293130;3999;16455
293135;41028;137010
293140;2447;7851
293150;5532;21458
293160;3621;14792
293170;3606;12790
293180;4824;16998
293190;14880;52242
293200;7050;24259
293210;5840;19494
293220;6015;20584
293230;6774;24882
293240;4189;13580
293245;3972;16900
293250;7152;23684
293260;4467;16407
293270;6020;19735
293280;5081;18131
293290;26333;88289
293300;7513;24529
293305;4208;13697
293310;2811;8656
293315;3919;13049
293317;2718;9108
293320;11733;37285
293325;2067;6713
293330;86416;305855
293340;2461;8969
293345;3488;12425
293350;6021;21923
293360;11592;45404
310010;2314;6660
310020;7704;22497
310030;3930;13131
310040;1261;3913
310050;3047;10249
310060;4164;15139
310070;699;1979
310080;1347;4024
310090;5285;18388
310100;3469;12711
310110;8238;24810
310120;2037;6072
310130;866;2679
310140;898;2896
310150;11180;34209
310160;23194;73357
310163;1781;6075
310170;11475;38278
310180;2210;7126
310190;5620;18357
310200;4482;13424
310205;1633;4957
310210;3596;12075
310220;1402;4434
310230;4632;15166
310240;966;3537
310250;1466;5034
310260;12212;37018
310270;2551;8930
310280;3969;12098
310285;2056;7768
310290;3465;11094
310300;2874;9548
310310;556;1671
310320;719;2243
310330;700;2057
310340;9949;35771
310350;35272;108818
310360;932;2823
310370;2371;8130
310375;1795;6142
310380;985;2761
310390;2444;7822
310400;29102;92664
310410;2873;9457
310420;11560;36381
310430;4497;13676
310440;937;2899
310445;1299;4758
310450;5221;17623
310460;4110;13021
310470;4399;14431
310480;1489;4908
310490;5605;18131
310500;2539;7854
310510;8002;22576
310520;1517;4981
310530;1703;5310
310540;8435;28353
310550;1770;5713
310560;39488;124795
310570;1941;6131
310590;6064;19494
310600;2889;10003
310610;1085;3396
310620;760947;2363472
310630;6766;23317
310640;2471;7533
310650;3300;12293
310660;1272;4485
310665;1250;4360
310670;111712;373766
310680;1207;3791
310690;4098;12034
310700;977;2626
310710;11594;38347
310720;1787;4998
310730;13504;46475
310740;14531;45484
310750;2218;6460
310760;1328;3853
310770;1581;5476
310780;4819;15311
310790;3244;10427
310800;5405;17161
310810;2441;6777
310820;1854;5784
310825;2280;9652
310830;5497;17020
310840;4888;14651
310850;1738;6492
310855;4061;14188
310860;8518;31094
310870;1459;4603
310880;1427;5027
310890;4676;14517
310900;10568;33783
310910;3625;10838
310920;2947;9868
310925;1240;3990
310930;6860;22457
310940;7459;26774
310945;2134;6439
310950;4191;13629
310960;1116;3654
310970;3429;10970
310980;781;2499
310990;3189;10180
311000;11826;40304
311010;1574;4963
311020;1199;4044
311030;4716;13526
311040;988;3153
311050;6906;20839
311060;9019;26359
311070;4005;12468
311080;1035;3560
311090;4731;15306
311100;6682;20537
311110;6490;18671
311115;1020;3672
311120;17166;51271
311130;3565;11378
311140;2154;6751
311150;4333;14153
311160;8561;27498
311170;1445;4603
311180;3688;11313
311190;1820;5558
311200;4995;14496
311205;1187;4190
311210;1462;4787
311220;1448;4748
311230;9835;34607
311240;2247;6987
311250;2647;8834
311260;4918;14978
311265;1580;4921
311270;3659;14151
311280;2737;8109
311290;2647;9024
311300;5857;22320
311310;909;3288
311320;6856;23305
311330;10936;32066
311340;26659;84583
311350;2980;9118
311360;1956;6254
311370;6245;20002
311380;747;2434
311390;3345;11648
311400;3515;10868
311410;3903;13683
311420;6292;19910
311430;9602;28744
311440;6548;20284
311450;4978;16965
311455;3228;9364
311460;1210;3897
311470;1085;3315
311480;1518;4533
311490;615;2244
311500;1041;2843
311510;5704;17267
311520;1193;3926
311530;22983;69328
311535;1427;4835
311540;909;3461
311545;1786;6680
311547;1486;5094
311550;7023;21530
311560;445;1210
311570;2330;6772
311580;3237;10247
311590;965;2792
311600;1779;5594
311610;3702;15184
311615;2541;10733
311620;882;2775
311630;1821;6526
311640;1433;4530
311650;2417;7771
311660;7594;25387
311670;2338;7021
311680;2490;8977
311690;1002;2972
311700;2396;8292
311710;3171;9757
311720;855;2749
311730;6924;22619
311740;1438;4395
311750;5082;17845
311760;1647;5140
311770;3943;12848
311780;3188;10340
311783;1749;6798
311787;1698;5914
311790;3384;10361
311800;13907;47907
311810;1440;4927
311820;2083;6476
311830;35131;116078
311840;7349;21972
311850;560;1719
311860;184547;599497
311870;2867;9257
311880;7674;25918
311890;2690;8640
311900;1061;3384
311910;7279;23758
311920;2991;10252
311930;9566;27308
311940;31294;102316
311950;2532;9104
311960;926;2979
311970;988;3269
311980;1208;3367
311990;1294;3725
311995;1796;5761
312000;997;3123
312010;1207;4126
312015;1756;6043
312020;3722;11227
312030;1480;5740
312040;1415;5003
312050;3103;10146
312060;1612;4692
312070;1157;3651
312080;4534;14540
312083;1565;4667
312087;1953;6896
312090;22685;73788
312100;1406;5205
312110;2420;7943
312120;2187;6707
312125;2382;7834
312130;1589;4759
312140;2334;6973
312150;956;2996
312160;12772;45489
312170;1179;3845
312180;2635;8629
312190;1043;3293
312200;6021;18930
312210;1599;4928
312220;1920;7008
312230;66608;212086
312235;1647;5877
312240;1774;5749
312245;2417;8961
312247;1244;3808
312250;1701;5197
312260;1333;4532
312270;1703;5161
312280;971;2993
312290;1882;5969
312300;2984;9236
312310;1483;5207
312320;4964;13679
312330;1366;4446
312340;494;1439
312350;669;1834
312352;2188;7416
312360;7713;25135
312370;3200;10243
312380;2045;7078
312385;1647;5171
312390;4263;14161
312400;5690;17890
312410;17516;59928
312420;7394;22733
312430;8474;31001
312440;1450;4426
312450;3420;10826
312460;826;2469
312470;1225;3501
312480;2432;7398
312490;3577;10492
312500;1085;3727
312510;9046;28472
312520;819;2339
312530;1120;3366
312540;1485;5133
312550;762;2651
312560;2006;6772
312570;4486;14013
312580;978;3022
312590;3354;10773
312595;2887;9594
312600;2031;6569
312610;21301;64548
312620;2225;8107
312630;1368;4056
312640;764;2529
312650;2808;10217
312660;1496;4840
312670;6814;24464
312675;1663;5796
312680;1705;5870
312690;2604;8688
312695;902;3326
312700;4569;13927
312705;1401;4670
312707;1587;5930
312710;18004;53179
312720;1149;3744
312730;2259;6916
312733;1475;5114
312735;853;2959
312737;1052;3044
312738;1209;3649
312740;1368;4194
312750;1524;5900
312760;3360;11645
312770;81173;260428
312780;3892;14960
312790;505;1370
312800;9362;31149
312810;4394;13802
312820;2936;10156
312825;1438;4716
312830;5909;18503
312840;2654;8579
312850;1267;3915
312860;2082;6536
312870;15599;49152
312880;2313;7196
312890;2258;7253
312900;2905;8678
312910;2166;5985
312920;1960;6094
312930;3278;10296
312940;1526;5004
312950;7608;23040
312960;2227;7803
312965;1658;6148
312970;3643;11969
312980;46239;158736
312990;1166;3358
313000;866;2844
313005;2548;10710
313010;10391;34708
313020;2757;9215
313030;2705;7974
313040;1688;5854
313050;3621;11453
313055;1921;6415
313060;2251;6905
313065;1944;7330
313070;1948;6183
313080;809;2618
313090;7618;24185
313100;1652;5743
313110;2039;6706
313115;4674;16294
313120;6006;18095
313130;72768;238151
313140;1410;4097
313150;3012;9444
313160;2012;6456
313170;31711;109527
313180;3252;10642
313190;13247;45268
313200;1280;4965
313210;4370;17692
313220;3987;12301
313230;3052;11762
313240;27913;90007
313250;8971;31975
313260;1299;4077
313270;6459;22634
313280;693;2282
313290;3402;10284
313300;4208;13872
313310;4365;14099
313320;3788;11806
313330;6141;20883
313340;4396;13431
313350;6942;21271
313360;2737;8592
313370;3074;9921
313375;4768;14910
313380;26666;84921
313390;1650;5799
313400;3787;14399
313410;1849;5819
313420;32354;96704
313430;1859;6131
313440;11112;34078
313450;1311;3912
313460;5382;16994
313470;3738;12045
313480;2501;7458
313490;7111;22636
313500;888;2972
313505;8922;33425
313507;1490;5017
313510;18386;66495
313520;17405;65235
313530;1169;3889
313535;2308;8286
313540;1683;5389
313545;1750;7090
313550;4045;12801
313560;2454;7917
313570;1557;5045
313580;7107;23969
313590;1560;4748
313600;4138;14898
313610;1671;5418
313620;22145;73390
313630;13550;44882
313640;1236;4281
313650;3005;10237
313652;1145;4550
313655;1271;4261
313657;1207;4562
313660;1653;5505
313665;6766;21963
313670;170038;512013
313680;1199;4108
313690;2819;9202
313695;1511;5700
313700;4266;16949
313710;2665;7570
313720;13976;45575
313730;1190;4218
313740;3269;12226
313750;5612;17084
313753;2738;8401
313760;15734;52362
313770;6075;19363
313780;6381;19415
313790;1068;3452
313800;2093;6465
313810;1980;6470
313820;28976;91729
313830;1010;3167
313835;1326;4799
313840;16492;50928
313850;1711;5325
313860;5367;15980
313862;2277;6814
313865;2330;8379
313867;1895;6228
313868;1699;6398
313870;1756;5360
313880;5817;17367
313890;2177;6960
313900;11469;38478
313910;1437;4645
313920;5409;18659
313925;1979;6311
313930;5116;19731
313940;24186;79322
313950;6775;21228
313960;8946;26883
313970;1951;6794
313980;3841;11537
313990;3959;14156
314000;15733;53385
314010;1308;4213
314015;3870;13183
314020;886;2782
314030;1176;3771
314040;905;2954
314050;4068;12496
314053;2202;7158
314055;2225;7859
314060;1280;4581
314070;8562;27780
314080;4225;13354
314085;2494;9964
314090;5018;17551
314100;3987;12657
314110;9871;33851
314120;1384;3729
314130;1121;3422
314140;6112;20972
314150;2066;6298
314160;3301;10334
314170;1803;6048
314180;7477;30657
314190;1128;3809
314200;3742;13003
314210;3280;10179
314220;4129;13721
314225;1177;4501
314230;1479;4680
314240;2271;6998
314250;685;2345
314260;2519;8127
314270;4398;15832
314280;6693;19346
314290;6940;21936
314300;4122;12787
314310;14953;45542
314315;1223;4646
314320;7092;21076
314330;104027;360404
314340;6894;21003
314345;1893;7455
314350;2789;8179
314360;808;2657
314370;993;3203
314380;1946;6242
314390;32810;100118
314400;8462;26444
314410;6560;20320
314420;909;3119
314430;12881;40645
314435;1830;6316
314437;1042;3256
314440;1569;4611
314450;2447;7924
314460;7775;25281
314465;2588;9805
314467;1166;3704
314470;5201;17465
314480;24197;80645
314490;1167;3783
314500;3953;12773
314505;2023;7371
314510;4918;15306
314520;21892;73349
314530;7944;30667
314535;3011;10296
314537;1418;4955
314540;670;1976
314545;1445;5168
314550;798;2532
314560;12036;39374
314570;665;2106
314580;927;3053
314585;1284;4492
314587;2200;7269
314590;10380;35183
314600;10432;31345
314610;20231;69547
314620;1697;5999
314625;1404;5832
314630;4989;18813
314640;1663;4587
314650;2635;7968
314655;1635;5917
314660;524;1557
314670;2053;6530
314675;2068;6906
314690;4023;14089
314700;23805;84366
314710;25448;83550
314720;6280;20118
314730;6293;19033
314740;6671;22477
314750;557;1764
314760;4785;15439
314770;2713;8143
314780;696;2065
314790;33233;105673
314795;1521;5565
314800;45460;137806
314810;25370;81719
314820;1796;5282
314830;2674;9230
314840;1331;4893
314850;2476;8529
314860;4886;17181
314870;6543;23725
314875;1777;6670
314880;1082;3364
314890;1323;3864
314900;678;2187
314910;3403;11402
314915;2721;10303
314920;1135;3488
314930;17484;58439
314940;586;1785
314950;1044;3121
314960;1331;4072
314970;2719;8861
314980;4419;14298
314990;6338;20018
314995;2011;7036
315000;1162;4061
315010;938;2840
315015;2142;7096
315020;1150;4033
315030;1610;4697
315040;1556;4595
315050;2719;8228
315053;1301;4414
315057;1858;7211
315060;2117;6370
315070;1506;4622
315080;4580;17173
315090;1589;5121
315100;2408;7976
315110;3490;10351
315120;14939;52387
315130;3470;10816
315140;7606;25078
315150;10646;31500
315160;3282;10347
315170;5117;15890
315180;50475;151874
315190;3011;8942
315200;8508;28872
315210;17189;55242
315213;1103;3962
315217;3063;11337
315220;10996;37492
315230;2866;10397
315240;4551;15612
315250;40378;129581
315260;1983;6141
315270;2535;8176
315280;8218;25121
315290;3069;8753
315300;1135;3264
315310;1601;5514
315320;1177;3908
315330;760;2954
315340;6322;18456
315350;2733;8273
315360;2701;9571
315370;1114;3286
315380;602;1861
315390;4379;15342
315400;7715;23695
315410;3508;10274
315415;1953;6569
315420;3498;10824
315430;5738;16838
315440;1434;4667
315445;2337;7933
315450;2309;9353
315460;85122;291816
315470;1214;3815
315480;2631;9086
315490;4283;14081
315500;775;2462
315510;1545;5197
315520;1830;6044
315530;1689;5259
315540;2804;8663
315550;3867;11785
315560;7544;29034
315570;4359;14102
315580;5478;17035
315590;1744;5223
315600;3773;13600
315610;1659;4827
315620;703;2116
315630;2045;6817
315640;1137;3572
315645;1420;4234
315650;2235;7768
315660;3062;9889
315670;36444;125916
315680;4654;15632
315690;7604;23692
315700;11793;39067
315710;1980;6853
315720;7990;27800
315725;2359;7657
315727;944;2782
315730;1385;4570
315733;2520;7861
315737;1280;4392
315740;1570;4980
315750;1323;4588
315760;1152;3939
315765;1610;6046
315770;3445;11298
315780;58332;202201
315790;4318;14997
315800;2868;10492
315810;1596;5278
315820;4067;13949
315830;2201;7225
315840;1212;3618
315850;2520;7975
315860;1168;3838
315870;659;2217
315880;1503;4561
315890;2545;8552
315895;7891;27204
315900;1287;3974
315910;1145;3807
315920;3113;8975
315930;1771;4971
315935;2034;6519
315940;1097;3582
315950;1787;5695
315960;11255;37436
315970;1065;3206
315980;6103;17961
315990;5038;17289
316000;1204;3535
316010;1238;4079
316020;1075;4135
316030;3574;11737
316040;8358;25798
316045;1798;6955
316050;532;1776
316060;1036;3218
316070;14682;46157
316080;1314;4575
316090;1103;3512
316095;1561;5403
316100;5305;17125
316105;1053;3372
316110;13498;53640
316120;1976;6453
316130;2041;5737
316140;1614;5157
316150;3221;10207
316160;1239;4380
316165;1145;3483
316170;2012;6242
316180;3323;10347
316190;2752;9767
316200;7130;23801
316210;10005;31711
316220;2280;6851
316225;1442;4651
316230;903;2719
316240;6595;25293
316245;2541;11699
316250;27313;83998
316255;3046;10234
316257;1704;5157
316260;2524;7868
316265;1142;4056
316270;6026;22283
316280;4555;15486
316290;8262;24909
316292;6799;23248
316294;2047;6749
316295;5647;19727
316300;1163;4074
316310;1305;4195
316320;1268;3989
316330;1152;3790
316340;1731;5598
316350;1862;6547
316360;788;2575
316370;13667;41395
316380;2058;6751
316390;1748;5010
316400;2537;8305
316410;1653;5565
316420;2440;10215
316430;2283;6631
316440;1544;4912
316443;932;2797
316447;1712;5734
316450;2920;10612
316460;1836;5749
316470;20735;64685
316480;515;1610
316490;682;2110
316500;3321;10526
316510;2265;7054
316520;2130;6582
316530;2053;6995
316540;1990;6227
316550;1491;5572
316553;7334;25760
316555;2550;10861
316556;930;2846
316557;1578;5205
316560;631;1987
316570;2288;7189
316580;629;1865
316590;1318;4548
316600;1637;5664
316610;1033;3493
316620;2988;10182
316630;2104;7127
316640;576;1788
316650;1118;4216
316660;289;812
316670;2675;8397
316680;3269;10513
316690;2228;7503
316695;1286;4422
316700;635;1987
316710;5626;20741
316720;63110;213307
316730;736;2191
316740;1977;5969
316750;755;2536
316760;5430;18227
316770;1828;5829
316780;1836;5581
316790;1355;4075
316800;8908;30849
316805;1093;3137
316810;1288;4106
316820;664;1872
316830;1162;3768
316840;4523;14202
316850;3647;11306
316860;40347;133318
316870;24185;80034
316880;2303;6878
316890;2502;6829
316900;5058;15752
316905;1263;3948
316910;1828;5720
316920;3157;9491
316930;21547;71888
316935;8698;27974
316940;16043;53700
316950;1967;6278
316960;8231;23879
316970;5273;17863
316980;1480;4608
316990;32031;100713
317000;2997;11632
317005;3688;12025
317010;96482;291773
317020;195801;601087
317030;838;2692
317040;24200;76418
317043;1532;4342
317047;1032;3157
317050;2878;10273
317052;3062;13591
317057;1952;6153
317060;798;2158
317065;1186;4733
317070;37546;122749
317075;1937;6021
317080;10759;35699
317090;4842;19085
317100;6445;19590
317103;2118;8281
317107;1636;5539
317110;1101;3247
317115;1455;4686
317120;29784;104046
317130;22727;71989
317140;1164;3726
317150;990;3370
317160;3951;13616
317170;2574;8356
317180;2988;10508
317190;1764;5646
317200;12134;37867
317210;1535;5052
317220;783;2547
350010;11314;33435
350020;1200;3557
350030;9881;32036
350040;2485;7430
350050;5595;17136
350055;1865;5558
350060;990;2687
350070;10171;34258
350075;1523;4852
350080;1348;3879
350090;1183;3791
350100;4867;15498
350110;1359;4044
350115;4964;16699
350120;1277;3475
350130;7421;23469
350140;1012;3294
350150;910;2995
350160;67636;209872
350170;10284;34358
350180;1912;5511
350190;20544;65569
350200;1374;4261
350210;18080;54222
350220;7020;22088
350230;1462;4557
350240;1143;3671
350250;10343;34649
350260;1551;4412
350270;7563;25072
350275;4938;16920
350280;60590;180613
350290;8531;27059
350300;1649;5147
350310;1896;6066
350315;789;2454
350320;68748;206708
350330;36333;117901
350335;630;1886
350340;2661;7818
350350;1082;3646
350360;3012;10519
350370;2691;8533
350380;13479;44126
350390;21436;74669
350395;517;1533
350400;31111;93214
350410;38211;125182
350420;4721;14149
350430;1562;4914
350440;3062;10099
350450;26228;80887
350460;4710;14593
350470;467;1345
350480;2748;8136
350490;3261;10088
350500;919;2802
350510;2049;6449
350520;9983;31463
350530;11167;35145
350535;1571;5244
350540;2404;7652
350550;36141;111638
350560;8409;28417
350570;71701;240308
350580;6344;20387
350590;17740;56242
350600;109844;339548
350610;23335;73590
350620;862;2674
350630;3493;10709
350635;14536;47358
350640;2392;7028
350650;35632;108335
350660;8400;28541
350670;4149;13613
350680;3311;10796
350690;3156;9593
350700;14681;48033
350710;6095;19593
350715;991;3564
350720;239;805
350730;1250;4238
350740;4768;14436
350745;691;2250
350750;41102;126871
350760;44479;144988
350770;1588;5015
350775;724;2249
350780;6385;21058
350790;6655;21245
350800;5509;18485
350810;5181;15302
350820;1373;4044
350830;1380;4356
350840;11900;41492
350850;24834;84414
350860;9068;29923
350870;5688;18427
350880;5325;16449
350890;1390;4064
350900;25348;86134
350910;1622;4888
350920;19187;63756
350925;8474;28295
350930;3100;9749
350940;7209;23261
350945;1808;5540
350950;348222;1073872
350960;21958;73664
350970;14296;47286
350980;1490;4531
350990;3654;12019
350995;1205;4384
351000;9614;29730
351010;868;2667
351015;1218;4362
351020;13600;45973
351030;5236;17218
351040;13982;47941
351050;31921;99875
351060;108590;369011
351070;4134;11766
351080;8366;25987
351090;837;2624
351100;5551;17492
351110;36938;111068
351120;2239;7105
351130;2615;7940
351140;5532;17287
351150;12192;39424
351160;4469;14548
351170;4413;15085
351190;2159;7037
351200;5311;17302
351210;1808;5973
351220;7136;25127
351230;5209;16198
351240;6413;20978
351250;1666;5139
351260;1627;4999
351270;1213;3869
351280;17764;58501
351290;2565;7182
351300;59036;200035
351310;9203;31588
351320;2341;7565
351330;779;2274
351340;23121;76855
351350;36452;118243
351360;7026;21703
351370;9554;30713
351380;117274;385254
351385;589;1689
351390;3581;11021
351400;2426;7933
351410;7619;24586
351420;717;2053
351430;2837;8574
351440;14244;42009
351450;4023;12185
351460;2292;7839
351470;2018;6301
351480;4258;14607
351490;4412;15553
351492;994;3120
351495;801;2422
351500;67584;237724
351510;18117;62446
351512;1016;3009
351515;4648;15663
351518;12999;41589
351519;1310;4235
351520;2732;8181
351530;799;2645
351535;2961;9426
351540;4899;15209
351550;21800;64410
351560;1852;5519
351565;514;1563
351570;48383;168016
351580;622;1750
351590;1083;2995
351600;3838;11563
351610;942;2828
351620;97741;317712
351630;43941;154152
351640;36262;123451
351650;903;2618
351660;2363;6945
351670;13471;42734
351680;1230;4043
351685;1333;4417
351690;3607;10602
351700;3031;9573
351710;1421;4539
351720;3244;10650
351730;1691;5423
351740;11958;37262
351750;5731;17817
351760;5420;17893
351770;6044;19783
351780;2827;8352
351790;3160;9930
351800;703;1963
351810;1945;6380
351820;10007;30538
351830;7759;25714
351840;34183;111622
351850;3684;11707
351860;10624;35357
351870;84920;290082
351880;360154;1212732
351885;2044;6941
351890;1535;4723
351900;2792;8677
351905;3333;11265
351907;54895;186779
351910;3104;9806
351920;2019;6228
351925;1386;4502
351930;8800;30702
351940;3644;10875
351950;2165;6705
351960;16814;52997
351970;21420;70930
351980;2223;7008
351990;2456;7580
352000;6861;23293
352010;8993;27825
352020;2809;8799
352030;9065;28672
352040;8986;27982
352042;3072;8782
352044;8028;24932
352050;61286;201104
352060;1602;4812
352070;1416;3841
352080;1174;3583
352090;4110;13422
352100;7796;26441
352110;1778;5974
352115;1443;4460
352120;1232;4258
352130;4379;14119
352140;5928;19918
352150;2248;7235
352160;2218;6405
352170;5521;17745
352180;7141;22527
352190;4854;14506
352200;968;3227
352210;28103;86416
352215;991;3228
352220;42786;149034
352230;42264;140642
352240;26608;87443
352250;57604;200626
352260;20932;66647
352265;1159;3875
352270;13169;39824
352280;4746;14436
352290;3707;12133
352300;1332;4219
352310;89605;321127
352320;15142;47742
352330;4569;15336
352340;31149;101193
352350;5224;17975
352360;3996;12685
352370;1712;5888
352380;2288;7482
352390;46481;153461
352400;13290;44734
352410;12603;38603
352420;2001;6448
352430;22676;70936
352440;63766;209135
352450;1756;5478
352460;5236;16932
352470;13536;44165
352480;16278;46901
352490;1648;5330
352500;32536;108283
352510;11134;37578
352520;7088;23800
352530;40936;130365
352540;970;3160
352550;3891;11664
352560;1287;4133
352570;10317;32650
352580;1373;4430
352585;854;2792
352590;118157;368727
352600;5778;17384
352610;5947;19200
352620;8799;28550
352630;1674;4718
352640;7928;25195
352650;1758;5101
352660;1859;6510
352670;27920;91395
352680;18145;61195
352690;84428;275171
352700;2217;6698
352710;22854;70580
352720;25064;82164
352725;671;1975
352730;11051;37060
352740;6002;18394
352750;684;2171
352760;3159;11063
352770;1531;4904
352780;1328;4352
352790;913;2685
352800;4642;16205
352810;2686;7625
352820;1255;3640
352830;1139;3200
352840;12978;43143
352850;23190;80560
352860;2895;8933
352870;1231;3582
352880;4362;13281
352885;889;2620
352890;1297;3912
352900;68716;214098
352910;682;2096
352920;7513;22913
352930;23708;76655
352940;125298;414899
352950;1555;4640
352960;1237;3761
352965;648;1886
352970;6462;20340
352980;3673;11987
352990;6179;20453
353000;1028;2799
353010;8173;24293
353020;5486;16940
353030;17454;53633
353040;1392;4218
353050;20043;65057
353060;116283;386095
353070;41766;136832
353080;27038;85837
353090;941;3266
353100;713;2016
353110;14580;44779
353120;2347;7135
353130;14940;46504
353140;7250;21630
353150;6019;18867
353160;1391;4057
353170;1335;4095
353180;14464;48841
353190;8793;29037
353200;3511;11717
353205;1357;4278
353210;1439;4134
353215;845;2706
353220;1311;4221
353230;2405;6672
353240;5190;16369
353250;2971;8752
353260;3683;10616
353270;1327;4066
353280;1984;5889
353282;2407;8472
353284;745;2107
353286;380;1125
353290;2867;9299
353300;6225;19132
353310;760;2166
353320;958;3023
353325;1350;4588
353330;1116;3431
353340;15555;50195
353350;12221;36484
353360;2135;6683
353370;1366;4157
353380;911;2673
353390;15949;49790
353400;1196;3870
353410;1923;6071
353420;1785;5639
353430;11971;39681
353440;201365;663456
353450;872;2535
353460;10005;29578
353470;32792;102684
353475;2773;8305
353480;2573;7791
353490;3637;10830
353500;3749;10994
353510;3174;10910
353520;3293;9547
353530;7166;21144
353540;4628;14549
353550;12975;40793
353560;5391;17310
353570;1899;5897
353580;5515;17739
353590;1296;3814
353600;3649;10810
353610;1707;5534
353620;5564;18383
353625;586;1635
353630;3942;12961
353640;1935;6292
353650;24168;81629
353657;541;1716
353660;2876;8524
353670;12292;41402
353680;1825;5734
353690;879;2544
353700;4745;15488
353710;12730;41456
353715;901;2939
353720;3239;10184
353730;18899;58245
353740;8048;24648
353750;2382;7442
353760;19273;59474
353770;1618;5092
353780;15414;51490
353790;7788;26247
353800;42991;146435
353810;4804;14901
353820;4228;13042
353830;1202;3522
353850;4410;14013
353860;7822;25008
353870;111724;359825
353880;9268;28313
353890;6539;19581
353900;3375;10554
353910;4384;15691
353920;7738;24591
353930;22579;69872
353940;3690;11840
353950;10616;35221
353960;1403;4418
353970;1043;3192
353980;30570;105779
353990;1802;5357
354000;6363;19894
354010;1161;3326
354020;11682;40065
354025;1307;4031
354030;845;2518
354040;1501;4202
354050;2787;8277
354060;14555;48538
354070;15859;51271
354075;4643;16761
354080;4980;15414
354085;507;1513
354090;5083;17280
354100;83181;260483
354105;1374;4599
354110;1347;4107
354120;4537;13481
354130;13192;41029
354140;67762;205570
354150;12399;36435
354160;10978;35491
354165;1035;3233
354170;4009;12683
354180;879;2802
354190;2975;10565
354200;1947;6004
354210;2516;8589
354220;9410;28693
354230;1249;3796
354240;5933;18443
354250;1751;5263
354260;16494;54154
354270;1826;6571
354280;1053;3340
354290;3768;12104
354300;5304;18209
354310;1300;4273
354320;1387;4381
354323;743;2179
354325;2238;7412
354330;33844;112752
354340;195323;600241
354350;2045;6125
354360;1144;3405
354370;3115;10371
354380;3268;9922
354390;59563;184791
354400;8698;29431
354410;13191;43776
354420;2925;9304
354425;6117;19565
354430;2851;9549
354440;866;2729
354450;987;2832
354460;1726;5198
354470;774;2388
354480;1812;5401
354490;3196;10425
354500;4625;15427
354510;1544;4759
354515;2165;7057
354520;31862;105158
354530;11490;39236
354540;2832;8567
354550;990;3269
354560;4598;14205
354570;2003;5665
354580;54907;179793
354600;4247;13720
354610;683;2056
354620;1302;3988
354625;527;1729
354630;9038;29605
354640;13905;43453
354650;1655;5557
354660;9981;29076
354670;6521;21081
354680;15299;50235
354690;2410;8247
354700;1637;5279
354710;936;2831
354720;594;1640
354730;31579;108651
354740;910;2536
354750;8750;26016
354760;7399;23789
354765;455;1301
354770;6682;20383
354780;215222;673064
354790;2069;6263
354800;6297;20604
354805;2417;7601
354810;1817;5940
354820;1987;6438
354830;949;2754
354840;1343;4267
354850;144593;417587
354860;3350;10394
354870;238992;761106
354880;50492;148474
354890;71600;221047
354900;864;2476
354910;27573;83317
354920;852;2566
354925;591;1780
354930;693;1995
354940;14414;46305
354950;2496;8345
354960;1301;4028
354970;15872;51559
354980;136804;404712
354990;188991;626491
354995;4296;13885
355000;3448;10278
355010;11493;38127
355020;9430;31148
355040;10383;31531
355050;2339;7168
355060;23732;78538
355070;23572;73564
355080;3698;12065
355090;4427;14317
355100;101580;330092
355110;2833;9001
355120;1143;3551
355130;1054;3030
355140;2563;8804
355150;11176;38804
355160;8676;26280
355170;33047;109587
355180;3959;12943
355190;4620;15329
355200;1788;5780
355210;12132;36488
355220;178777;582252
355230;2420;7433
355240;73407;240810
355250;74701;261260
355255;1090;3371
355260;3746;11255
355270;4578;14299
355280;72313;244148
355290;1800;5705
355300;3142;10820
355310;1813;5863
355320;1773;5438
355330;6782;22080
355340;8099;23984
355350;2348;7976
355360;3815;12728
355365;807;2591
355370;17416;53804
355380;6868;22207
355385;1425;5147
355390;2020;6592
355395;3973;12875
355400;32453;106825
355410;83616;275965
355420;1386;4769
355430;6632;21293
355440;2699;8483
355450;11490;36690
355460;877;2625
355465;785;2235
355470;2935;9267
355475;464;1542
355480;10614;37216
355490;1863;5408
355495;1889;5897
355500;20820;62601
355510;4562;13021
355520;703;1930
355530;708;1953
355535;1603;5287
355540;25015;78367
355550;1440;4403
355560;3110;9444
355570;509;1599
355580;3025;8812
355590;438;1251
355600;4196;12559
355610;3553;10991
355620;33633;106592
355630;6165;20305
355635;2774;8789
355640;12360;39156
355645;12541;42806
355650;31612;106916
355660;3290;10644
355670;19376;63373
355680;5379;17233
355690;2086;6807
355695;558;1737
355700;31953;108639
355710;29144;84535
355715;779;2278
355720;3709;12056
355730;2910;9998
430003;1397;4393
430005;1152;3664
430010;5425;16588
430020;2456;7214
430030;2459;7009
430040;25917;77112
430045;1432;4111
430047;728;2064
430050;2687;8015
430055;567;1659
430057;999;2913
430060;60211;194944
430063;2094;6293
430064;2391;7301
430066;425;1216
430070;1929;6041
430080;4231;12783
430085;1331;3677
430087;1600;4618
430090;2155;6520
430100;6203;18562
430105;2756;7694
430107;690;2659
430110;4608;13604
430120;3683;11880
430130;6400;18176
430140;3211;10186
430150;2343;6582
430155;1215;3642
430160;38485;116254
430163;3784;10822
430165;1841;5707
430170;2090;6507
430175;2354;7014
430180;1795;5284
430185;1003;3075
430187;1166;3831
430190;4261;12506
430192;620;2001
430195;615;2029
430200;3565;11000
430205;621;2301
430210;36493;106755
430215;703;2112
430220;2225;6492
430222;643;1926
430223;777;2401
430225;915;2775
430230;3544;10553
430235;3798;11602
430237;782;2328
430240;3997;11297
430245;2467;7635
430250;2382;6884
430258;702;2199
430260;1211;3672
430265;1670;4645
430270;6746;20372
430280;11994;33268
430290;4493;13598
430300;29374;83107
430310;38874;118036
430320;1453;4868
430330;1720;4932
430340;1621;5048
430350;20259;60556
430355;835;2592
430360;2181;6513
430367;1101;3240
430370;2070;6094
430380;1882;5480
430390;19996;59641
430400;1840;5427
430410;1129;3165
430420;10402;29896
430430;2159;6528
430435;2827;8764
430440;12927;38907
430450;17565;53067
430460;103840;322704
430461;600;1806
430462;581;1677
430463;13623;41888
430465;1029;3104
430466;7805;24138
430467;1275;3870
430468;3908;11612
430469;855;2630
430470;20153;58830
430471;2569;7297
430480;8379;24907
430485;498;1606
430490;2810;8634
430495;991;2971
430500;3112;9105
430510;146373;432439
430511;942;2930
430512;2250;6218
430513;1591;4438
430515;788;2415
430517;3333;10233
430520;4420;13058
430530;3329;9372
430535;9707;29320
430537;929;3471
430540;1352;4036
430543;1955;5865
430544;1500;4926
430545;4399;12628
430550;1669;4922
430558;843;2404
430560;1245;3549
430570;2138;6551
430580;3062;9749
430583;534;1528
430585;806;2285
430587;873;2455
430590;2617;7714
430593;486;1588
430595;1246;3911
430597;910;2746
430600;4899;14035
430605;2331;7203
430607;954;2825
430610;21192;62115
430613;681;2135
430620;4195;12250
430630;1508;4683
430632;1055;3189
430635;992;2866
430637;1091;3064
430640;9403;27474
430642;714;2157
430645;1055;3277
430650;4615;14291
430655;952;2544
430660;12824;37560
430670;1115;3394
430673;1888;5304
430675;642;2020
430676;10980;34099
430680;6926;19998
430690;8368;24086
430692;433;1526
430693;3061;8878
430695;1051;3074
430697;935;2970
430700;32768;94579
430705;1082;3081
430710;2456;6440
430720;1573;4881
430730;2560;7713
430740;1092;3163
430745;1096;3142
430750;4988;14773
430755;2022;6011
430760;13880;42380
430770;26387;80445
430780;10475;30509
430781;1076;3427
430783;1024;2780
430786;763;2579
430790;19962;61364
430800;2159;6660
430805;853;2567
430807;1270;3691
430810;4175;12339
430820;8798;27049
430825;653;2006
430830;3162;9917
430840;2349;6975
430843;886;2479
430845;1561;4575
430850;9176;27580
430860;10133;30520
430865;1090;3233
430870;1981;5818
430880;3001;8406
430885;545;1677
430890;5632;16016
430900;5602;16406
430905;2369;6802
430910;11140;32048
430912;694;2155
430915;1215;3967
430920;82378;255045
430925;531;1598
430930;31242;95004
430940;7603;22559
430950;2621;7853
430955;1419;4246
430957;916;2946
430960;6578;18329
430965;1926;5989
430970;1719;4900
430975;1330;4229
430980;1647;4706
430990;2202;7156
430995;1394;4054
431000;6759;19222
431010;10271;30538
431020;26781;78063
431030;1266;4031
431033;5830;17010
431036;1064;3012
431040;2258;6597
431041;756;2267
431043;1990;5980
431046;648;1943
431050;2641;7954
431053;1662;5000
431055;1192;3429
431057;716;2344
431060;11338;37154
431065;910;2552
431070;1280;3911
431075;685;2142
431080;6687;19782
431085;1343;4085
431087;806;2477
431090;1207;3556
431100;10017;27759
431110;3992;11325
431112;1321;4028
431113;1211;3574
431115;2689;8303
431120;6345;19401
431123;854;2656
431125;1938;6164
431127;557;1597
431130;9262;26750
431140;24962;70929
431142;802;2487
431150;2630;7621
431160;1782;5626
431162;1746;5219
431164;547;1624
431170;1907;5499
431171;1375;4369
431173;1013;3003
431175;2505;7062
431177;2293;6796
431179;840;2525
431180;11963;35558
431190;1759;5070
431198;1389;3743
431200;755;2201
431205;1435;4062
431210;1844;5092
431213;804;2325
431215;1324;3858
431217;620;1795
431220;1620;4899
431225;2470;7623
431230;1567;4663
431235;468;1540
431237;774;2467
431238;826;2665
431240;19871;58402
431242;879;2729
431244;1151;3169
431245;2297;6199
431247;1928;5672
431250;4110;12048
431260;1682;4784
431261;788;2370
431262;544;1813
431265;5455;15675
431267;618;1721
431270;3937;12000
431275;918;2987
431280;1296;4001
431290;2651;8835
431295;667;1960
431300;1042;3162
431301;914;2751
431303;1549;4530
431306;5369;16642
431308;721;2425
431310;1902;6335
431320;6627;18869
431330;7553;22490
431333;842;2422
431335;1038;3329
431337;7211;22663
431339;1348;3834
431340;80329;237506
431342;1415;3921
431344;721;2277
431346;575;1757
431349;1315;3975
431350;13375;40037
431360;1364;4242
431365;3875;10874
431370;11024;33775
431380;2291;6918
431390;12996;37934
431395;3377;9872
431400;2146;6794
431402;2502;7281
431403;1177;3506
431405;16799;51319
431406;1505;4822
431407;2078;5985
431410;61596;182900
431413;649;2018
431415;2877;8025
431417;736;2154
431420;2770;7572
431430;1134;3536
431440;113857;326541
431442;1737;5156
431445;818;2513
431446;745;2130
431447;1393;4463
431449;1432;4469
431450;4725;12742
431455;962;2748
431460;7185;19686
431470;3448;10464
431475;678;1983
431477;1267;3822
431478;533;1712
431480;10127;30721
431490;508218;1396642
431500;1978;5377
431505;833;2528
431507;683;1837
431510;3609;10526
431513;623;1864
431514;791;2483
431515;2002;6133
431517;627;2000
431520;1280;3998
431530;7570;22923
431531;571;1775
431532;873;2569
431535;1126;3202
431540;2757;10212
431545;721;2152
431550;5351;15760
431555;1170;3588
431560;65322;191414
431570;12710;37255
431575;1448;4312
431580;3487;10045
431590;2011;5732
431595;871;2539
431600;6696;19453
431610;3036;10109
431620;1670;5509
431630;2383;7163
431640;13015;39090
431642;853;2589
431643;1039;2860
431645;3853;11760
431647;892;2662
431650;2186;6658
431660;5330;15355
431670;3050;8787
431673;532;1653
431675;1918;5640
431680;40540;117365
431690;87135;258320
431695;2033;6047
431697;725;2081
431700;2942;8202
431710;27193;81602
431720;23270;67815
431725;568;1717
431730;11128;30521
431740;17164;48679
431750;25666;75569
431755;655;2139
431760;13778;39478
431770;3819;11166
431775;694;1987
431780;4791;13964
431790;4856;14301
431795;821;2461
431800;19591;61343
431805;947;2918
431810;6807;19176
431820;6696;20137
431830;19965;59556
431840;7259;21681
431842;1600;4725
431843;855;2591
431844;907;2769
431845;903;2720
431846;709;2200
431848;1352;4093
431849;750;2186
431850;8738;25319
431860;2123;6273
431861;699;2079
431862;1076;3225
431870;71029;212645
431880;13264;42557
431890;11851;34217
431900;6695;20058
431910;2012;5598
431912;1123;3201
431915;2520;7420
431920;2006;5701
431930;2043;6296
431935;1054;3311
431936;611;1886
431937;946;2873
431940;5773;16115
431950;7399;21851
431960;8094;22886
431970;1200;3630
431971;740;2167
431973;735;2643
431975;636;1943
431980;2774;8192
431990;24482;74885
432000;42730;130628
432010;6922;20990
432020;3686;10845
432023;1022;2998
432026;2223;7138
432030;1658;4915
432032;942;2802
432035;1807;5177
432040;4512;14146
432045;764;2276
432050;2168;6286
432055;2012;5824
432057;702;2122
432060;1263;3823
432065;813;2437
432067;3171;10042
432070;4835;14072
432080;9957;29726
432085;1455;4119
432090;6522;19241
432100;3527;10399
432110;5788;16590
432120;18505;54176
432130;9302;25914
432132;914;2957
432135;1907;5224
432140;4334;13695
432143;3299;9818
432145;9295;27168
432146;927;2724
432147;2191;6453
432149;1017;2777
432150;12145;34466
432160;13743;41322
432162;773;2314
432163;874;2621
432166;3418;10165
432170;7742;23296
432180;8302;23620
432183;1008;2891
432185;1425;4376
432190;8502;23365
432195;1954;5761
432200;8596;25647
432210;2057;5887
432215;1258;3974
432218;535;1562
432220;7283;21723
432225;1257;3853
432230;3068;8528
432232;1074;3510
432234;726;2293
432235;458;1487
432237;832;2450
432240;37422;124321
432250;19507;59895
432252;1164;3253
432253;3533;11075
432254;1603;4923
432255;635;1981
432260;22694;64703
432270;7795;23338
432280;7568;22303
432285;622;1969
432290;1758;5298
432300;75475;237791
432310;1712;5243
432320;960;2737
432330;986;3195
432335;679;2144
432340;1332;4184
432345;1503;4221
432350;883;2830
432360;462;1511
432370;947;2759
432375;1150;3328
432377;867;2793
432380;3858;12396
